# data from "commitment" collection

Identificador => 01l6kkwgnGYeqCJEn5F2
Data => {'novelty': 0.7272727272727273, 'order': 46, 'id': '01l6kkwgnGYeqCJEn5F2', 'message': 'away from the bomb', 'diversity': 0.8333333333333334}
Identificador => 05SJJm4ZwszQBZlevAK0
Data => {'diversity': 0.9333333333333333, 'message': 'attempted bank robbery', 'id': '05SJJm4ZwszQBZlevAK0', 'novelty': 0.9230769230769231, 'order': 283}
Identificador => 0CT1QAZq1eqOnb4Uslyj
Data => {'id': '0CT1QAZq1eqOnb4Uslyj', 'diversity': 0.6666666666666667, 'message': 'thats what', 'novelty': 0.6666666666666667, 'order': 151}
Identificador => 0SPiY8mxpDZLoadIANTF
Data => {'message': 'are me the dog too else', 'novelty': 0.7777777777777778, 'id': '0SPiY8mxpDZLoadIANTF', 'order': 109, 'diversity': 0.8461538461538461}
Identificador => 0malulgHKbeBb5YENrvR
Data => {'id': '0malulgHKbeBb5YENrvR', 'diversity': 0.0, 'novelty': 0.8181818181818181, 'message': 'oh yeah', 'order': 265}
Identificador => 0rqghQ6y4EFcW44jbgRy
Data => {'order': 312, 'message': 'all right', 'id': '0rqghQ6y4EFcW44jbgRy', 'diversity': 0.0, 'novelty': 0.5}
Identificador => 12w8TWx312dntehVinve
Data => {'rating_2': {'inteligility': 4, 'email': 'mherreraco@unsa.edu.pe', 'typeacuracy': 'Commitment', 'message_update': False}, 'novelty': 0.7, 'message': 'i had on the phone all came from her son', 'order': 110, 'group_code': 'Com012', 'rating_1': {'typeacuracy': 'Consistency', 'inteligility': 4, 'message_update': False, 'email': 'lvillanuevaf@unsa.edu.pe'}, 'diversity': 0.7647058823529411, 'id': '12w8TWx312dntehVinve'}
Identificador => 1GIZs7ltJuPp9cAldmCy
Data => {'id': '1GIZs7ltJuPp9cAldmCy', 'novelty': 0.782608695652174, 'message': 'youre not gonna do it my hands my home pull the beer kids', 'order': 57, 'rating_1': {'email': 'ncfyllen7@gmail.com', 'message_update': False, 'inteligility': 3, 'typeacuracy': 'Consistency'}, 'diversity': 0.8260869565217391}
Identificador => 1He4fK1XWxG99SYItvN2
Data => {'id': '1He4fK1XWxG99SYItvN2', 'novelty': 1.0, 'message': '<place> <place>', 'diversity': 0.8333333333333334, 'order': 252}
Identificador => 1JY0I4n6qicwP45qelK3
Data => {'diversity': 0.7142857142857143, 'message': 'they dont put her on my <UNK>', 'order': 12, 'novelty': 0.8235294117647058, 'id': '1JY0I4n6qicwP45qelK3'}
Identificador => 1nF9MSwxzRomzEbVyytd
Data => {'diversity': 0.6666666666666667, 'novelty': 0.6428571428571428, 'message': 'im talking about i speak to me', 'id': '1nF9MSwxzRomzEbVyytd', 'order': 260}
Identificador => 1phP8JDI6osJGW1DIJmk
Data => {'novelty': 0.76, 'id': '1phP8JDI6osJGW1DIJmk', 'order': 194, 'diversity': 0.8, 'message': 'does he just get before this is he might it this time im talking to them for', 'group_code': 'Com017'}
Identificador => 2TYSCVCPd5uc1Rflka6v
Data => {'diversity': 0.6666666666666667, 'message': 'who me go to <name>', 'order': 38, 'id': '2TYSCVCPd5uc1Rflka6v', 'novelty': 0.6923076923076923}
Identificador => 2UdbghY0Cdv0Lm3nTfeU
Data => {'order': 106, 'novelty': 0.5, 'diversity': 0.0, 'id': '2UdbghY0Cdv0Lm3nTfeU', 'message': 'all right'}
Identificador => 2Va4S8FY21Q7GzeHZDZP
Data => {'novelty': 0.7058823529411764, 'id': '2Va4S8FY21Q7GzeHZDZP', 'diversity': 0.75, 'order': 215, 'message': 'in her thats the word and all that stuff okay'}
Identificador => 2hKA0bcBBw1fJqcc41Sh
Data => {'order': 153, 'id': '2hKA0bcBBw1fJqcc41Sh', 'message': 'no <name> i dont think shes still there', 'novelty': 0.7777777777777778, 'diversity': 0.7272727272727273}
Identificador => 2xrUplURMf7zzvlARPJf
Data => {'diversity': 0.6666666666666667, 'message': 'but i know that they we could get', 'id': '2xrUplURMf7zzvlARPJf', 'order': 166, 'novelty': 0.6470588235294117}
Identificador => 3AQ5l9dV4r2NkKl056ce
Data => {'message': 'i hear a heart attack maybe thirty five sort of an whenever close of the airplane by', 'id': '3AQ5l9dV4r2NkKl056ce', 'order': 174, 'group_code': 'Com017', 'novelty': 0.84, 'diversity': 0.85}
Identificador => 3B7P4L85iVfjcPvp48uc
Data => {'diversity': 0.8, 'message': 'thats what i asked in jail the truth <name> had been could', 'order': 192, 'rating_1': {'typeacuracy': 'Contains no persuasion', 'message_update': False, 'inteligility': 4, 'email': 'ehuayllasco@unsa.edu.pe'}, 'id': '3B7P4L85iVfjcPvp48uc', 'group_code': 'Com003', 'rating_2': {'email': 'ehuancap@unsa.edu.pe', 'inteligility': 2, 'typeacuracy': 'Contains no persuasion', 'message_update': False}, 'novelty': 0.7619047619047619}
Identificador => 3Fl3kVKMr89TDHZJzRAW
Data => {'order': 230, 'message': 'okay well <name>', 'id': '3Fl3kVKMr89TDHZJzRAW', 'diversity': 0.33333333333333337, 'novelty': 0.6666666666666667}
Identificador => 3Kqbo1WVPSMl96AMth4l
Data => {'order': 205, 'diversity': 0.7142857142857143, 'id': '3Kqbo1WVPSMl96AMth4l', 'novelty': 0.6666666666666667, 'message': 'i know to talk back here to talk to your mom first'}
Identificador => 3YdcKmVzjCU7QAqGM7s9
Data => {'id': '3YdcKmVzjCU7QAqGM7s9', 'diversity': 0.6666666666666667, 'order': 204, 'novelty': 0.75, 'message': 'not mine'}
Identificador => 3d04d7g0md6CSX3HOc88
Data => {'diversity': 0.8181818181818181, 'message': 'i aint gonna do nothing theres a bum then well', 'rating_2': {'inteligility': 4, 'typeacuracy': 'Commitment', 'message_update': False, 'email': 'lmurillo@unsa.edu.pe'}, 'id': '3d04d7g0md6CSX3HOc88', 'group_code': 'Com005', 'order': 123, 'novelty': 0.736842105263158, 'rating_1': {'typeacuracy': 'Consistency', 'email': 'etorresq@unsa.edu.pe', 'message_update': False, 'inteligility': 4}}
Identificador => 3mHtLOjkuyF2y6nURMBs
Data => {'id': '3mHtLOjkuyF2y6nURMBs', 'order': 129, 'novelty': 0.7142857142857143, 'message': 'injured diapers i shot dead okay', 'diversity': 0.8}
Identificador => 3yNLfBTg2Wnjh4mA1x1y
Data => {'novelty': 0.8571428571428572, 'order': 306, 'diversity': 0.6, 'id': '3yNLfBTg2Wnjh4mA1x1y', 'message': 'oh yeah hows she doing'}
Identificador => 4LRi7J9PgDxnhWSPSEzA
Data => {'novelty': 0.8, 'order': 176, 'id': '4LRi7J9PgDxnhWSPSEzA', 'diversity': 0.6666666666666667, 'message': '<name> thats not a <UNK> <UNK> nothing'}
Identificador => 4M10msHvLqd0ktC01XWn
Data => {'message': '<name> its not new <UNK> to gods <UNK>', 'diversity': 0.7, 'id': '4M10msHvLqd0ktC01XWn', 'novelty': 0.7777777777777778, 'order': 304}
Identificador => 4htm6xHSo5yvKpSbIaAk
Data => {'novelty': 0.7777777777777778, 'diversity': 0.6666666666666667, 'id': '4htm6xHSo5yvKpSbIaAk', 'message': '<name> there', 'order': 318}
Identificador => 5IQf70smG7NzshNATwVx
Data => {'novelty': 0.7272727272727273, 'id': '5IQf70smG7NzshNATwVx', 'diversity': 0.75, 'message': 'sit down and', 'order': 22}
Identificador => 5PxMbTbr1gZiJU3G8vce
Data => {'order': 302, 'diversity': 0.33333333333333337, 'id': '5PxMbTbr1gZiJU3G8vce', 'novelty': 0.8, 'message': 'thats all <UNK>'}
Identificador => 5XQGO1YzzGfsb43MKtvr
Data => {'message': '<name> gave me', 'id': '5XQGO1YzzGfsb43MKtvr', 'novelty': 0.8, 'diversity': 0.5, 'order': 20}
Identificador => 5fVDGzCambEFHGNvU5xY
Data => {'diversity': 0.7142857142857143, 'order': 276, 'novelty': 0.8095238095238095, 'message': 'they still <name> on board her your <UNK> for 15 minutes', 'id': '5fVDGzCambEFHGNvU5xY'}
Identificador => 5nQzpboRBEyrkgkkPRCn
Data => {'novelty': 0.875, 'order': 289, 'group_code': 'Com017', 'id': '5nQzpboRBEyrkgkkPRCn', 'message': 'd as she tore my heart apart came here huh uh necessary true how break anything', 'diversity': 0.88}
Identificador => 5uD65R0WLBiniz88mAW9
Data => {'diversity': 0.7142857142857143, 'novelty': 0.75, 'message': 'they dont know', 'order': 16, 'id': '5uD65R0WLBiniz88mAW9'}
Identificador => 5umpkPregMajR0jCR7jy
Data => {'order': 102, 'diversity': 0.6956521739130435, 'message': 'im telling you about that i know you said that and was gonna keep doing working it', 'id': '5umpkPregMajR0jCR7jy', 'novelty': 0.7272727272727273}
Identificador => 60GRt5Z29l0BtpT3bcbL
Data => {'message': 'you know what its <name> i wanna talk to you', 'novelty': 0.625, 'order': 321, 'rating_2': {'inteligility': 5, 'email': 'elipat@unsa.edu.pe', 'message_update': False, 'typeacuracy': 'Consistency'}, 'diversity': 0.6470588235294117, 'rating_1': {'typeacuracy': 'Consistency', 'email': 'jperca@unsa.edu.pe', 'message_update': False, 'inteligility': 4}, 'id': '60GRt5Z29l0BtpT3bcbL', 'group_code': 'Com009'}
Identificador => 60yCazn5qeYQJll8rIKp
Data => {'novelty': 0.782608695652174, 'rating_2': {'message_update': False, 'typeacuracy': 'Commitment', 'inteligility': 4, 'email': 'abejar@unsa.edu.pe'}, 'message': 'if it was they give too may have wake anybody decided you get her', 'rating_1': {'email': 'alajoa@unsa.edu.pe', 'typeacuracy': 'Consistency', 'message_update': False, 'inteligility': 4}, 'order': 155, 'id': '60yCazn5qeYQJll8rIKp', 'group_code': 'Com001', 'diversity': 0.8235294117647058}
Identificador => 662c0w6Ey1fL8NkOcMid
Data => {'diversity': 0.8461538461538461, 'message': 'he who has to use scripture as in this and', 'order': 71, 'id': '662c0w6Ey1fL8NkOcMid', 'group_code': 'Com009', 'rating_2': {'email': 'elipat@unsa.edu.pe', 'inteligility': 3, 'message_update': False, 'typeacuracy': "I'm not sure"}, 'rating_1': {'email': 'jperca@unsa.edu.pe', 'message_update': False, 'typeacuracy': 'Contains no persuasion', 'inteligility': 1}, 'novelty': 0.7777777777777778}
Identificador => 6d8fF3fZGKZmEmO4nw61
Data => {'message': 'all right', 'order': 86, 'novelty': 0.5, 'diversity': 0.0, 'id': '6d8fF3fZGKZmEmO4nw61'}
Identificador => 78vcmX7osQR8HfkKHMFh
Data => {'id': '78vcmX7osQR8HfkKHMFh', 'diversity': 0.7692307692307692, 'message': 'me i <UNK> her that time rather its', 'order': 89, 'novelty': 0.7894736842105263}
Identificador => 79IAGK387l7zvyc22KV7
Data => {'group_code': 'Com020', 'order': 40, 'id': '79IAGK387l7zvyc22KV7', 'message': 'this woman is decided you she hasnt talked and her love somebody working on that but', 'novelty': 0.7083333333333333, 'diversity': 0.8}
Identificador => 7AvoMWdXmXEogZpxDWPi
Data => {'novelty': 0.8571428571428572, 'message': 'wheres <name>', 'order': 269, 'diversity': 0.6666666666666667, 'id': '7AvoMWdXmXEogZpxDWPi'}
Identificador => 8JmzDJQsyOjjlvAhMWg9
Data => {'diversity': 0.7692307692307692, 'message': 'nor the got when i would only dont worry about me', 'id': '8JmzDJQsyOjjlvAhMWg9', 'novelty': 0.75, 'order': 120}
Identificador => 8bCvyHATjN2DZMvcTYdC
Data => {'novelty': 0.7142857142857143, 'message': '101 you stay with you', 'id': '8bCvyHATjN2DZMvcTYdC', 'order': 224, 'diversity': 0.5}
Identificador => 8bkJo1STbCFhKtOOe2iF
Data => {'diversity': 0.8181818181818181, 'novelty': 0.75, 'id': '8bkJo1STbCFhKtOOe2iF', 'order': 221, 'message': 'we are <name> im dying or something'}
Identificador => 8dUobYzMTYIlfldqYk6c
Data => {'order': 97, 'diversity': 0.7857142857142857, 'message': 'i havent stopped first all over too', 'id': '8dUobYzMTYIlfldqYk6c', 'novelty': 0.8333333333333334}
Identificador => 9A9o5pRIzBq43Hja8Nyt
Data => {'order': 200, 'id': '9A9o5pRIzBq43Hja8Nyt', 'novelty': 0.7333333333333334, 'diversity': 0.7, 'message': 'thats not a guy i the fbi'}
Identificador => 9ZJqpkFphneSLCXoYOpO
Data => {'message': 'yep they turned on that house gettin that have no way in my brother was her thats', 'novelty': 0.782608695652174, 'rating_2': {'email': 'elipat@unsa.edu.pe', 'message_update': False, 'typeacuracy': 'Contains no persuasion', 'inteligility': 3}, 'rating_1': {'message_update': False, 'email': 'jperca@unsa.edu.pe', 'inteligility': 1, 'typeacuracy': "I'm not sure"}, 'group_code': 'Com009', 'id': '9ZJqpkFphneSLCXoYOpO', 'order': 296, 'diversity': 0.7894736842105263}
Identificador => 9adqTbZoo74QFQs7NSg6
Data => {'order': 76, 'diversity': 0.25, 'id': '9adqTbZoo74QFQs7NSg6', 'novelty': 0.7692307692307692, 'message': '<UNK> and the baby'}
Identificador => 9ajw9Nvm9iwNMzQctek8
Data => {'order': 158, 'novelty': 0.782608695652174, 'diversity': 0.8148148148148149, 'id': '9ajw9Nvm9iwNMzQctek8', 'message': 'ok i shot for instance i here the officers knows what what you get either theyre too', 'group_code': 'Com020'}
Identificador => 9jHv9qstVIJ9ZRzRT5GD
Data => {'novelty': 0.7777777777777778, 'order': 222, 'message': '<name> about me', 'diversity': 0.5, 'id': '9jHv9qstVIJ9ZRzRT5GD'}
Identificador => 9jVbiJoz5Uy5PL82uF1O
Data => {'id': '9jVbiJoz5Uy5PL82uF1O', 'order': 103, 'novelty': 0.6666666666666667, 'message': 'im sure you do', 'diversity': 0.75}
Identificador => 9jvvnEQnNOLmFhknfXdC
Data => {'novelty': 0.9285714285714286, 'message': 'mm hm', 'id': '9jvvnEQnNOLmFhknfXdC', 'diversity': 1.0, 'order': 70}
Identificador => 9o46OOui68yYniYz2PJB
Data => {'novelty': 0.9333333333333333, 'diversity': 1.0, 'id': '9o46OOui68yYniYz2PJB', 'order': 188, 'message': 'forty fifty'}
Identificador => ABF3GMxNOWLZ61b4e7Oz
Data => {'novelty': 0.9333333333333333, 'diversity': 0.9090909090909091, 'message': 'parking probably short', 'id': 'ABF3GMxNOWLZ61b4e7Oz', 'order': 32}
Identificador => AFqKEUDFZkU6z3EW4bwl
Data => {'id': 'AFqKEUDFZkU6z3EW4bwl', 'novelty': 0.8888888888888888, 'message': 'its positive', 'order': 203, 'diversity': 0.75}
Identificador => AhpEvzkvkoNoL9sqCyz3
Data => {'message': 'right back in here from <place>', 'id': 'AhpEvzkvkoNoL9sqCyz3', 'order': 263, 'novelty': 0.8125, 'diversity': 0.7142857142857143}
Identificador => An9xieErTX5hik1qdWw0
Data => {'order': 225, 'diversity': 0.7142857142857143, 'novelty': 0.6666666666666667, 'message': 'to get me locked up again', 'id': 'An9xieErTX5hik1qdWw0'}
Identificador => BEDbttRtZFzXilaW3jsK
Data => {'rating_2': {'inteligility': 4, 'email': 'mherreraco@unsa.edu.pe', 'message_update': False, 'typeacuracy': 'Commitment'}, 'novelty': 0.7, 'group_code': 'Com012', 'rating_1': {'inteligility': 4, 'message_update': False, 'typeacuracy': 'Consistency', 'email': 'lvillanuevaf@unsa.edu.pe'}, 'id': 'BEDbttRtZFzXilaW3jsK', 'message': 'i could have him and its over it was he wanting to talk to you', 'order': 118, 'diversity': 0.7222222222222222}
Identificador => BFeY4IL4lOYa9GgeVH4h
Data => {'diversity': 0.75, 'group_code': 'Com010', 'rating_1': {'message_update': False, 'email': 'lmoroco@unsa.edu.pe', 'typeacuracy': 'Commitment', 'inteligility': 5}, 'rating_2': {'message_update': False, 'inteligility': 4, 'typeacuracy': 'Commitment', 'email': 'jvaldiviame@unsa.edu.pe'}, 'novelty': 0.7142857142857143, 'order': 29, 'id': 'BFeY4IL4lOYa9GgeVH4h', 'message': 'come back to <ht01_first_name> dont <UNK> talk to <on1> talking about and let me know to help'}
Identificador => BLHZvIjpArAvvFCYKml7
Data => {'order': 231, 'message': 'car was running around in terms and me', 'novelty': 0.7894736842105263, 'diversity': 0.8571428571428572, 'id': 'BLHZvIjpArAvvFCYKml7'}
Identificador => BQUDQkepDAtelR98Ztbn
Data => {'novelty': 0.7777777777777778, 'message': 'we are not gonna shoot your chest me though', 'order': 90, 'id': 'BQUDQkepDAtelR98Ztbn', 'diversity': 0.8181818181818181}
Identificador => BUDnhn52oADvXuE1r0BY
Data => {'id': 'BUDnhn52oADvXuE1r0BY', 'diversity': 0.7647058823529411, 'message': 'you just said that for you ok', 'order': 160, 'novelty': 0.5555555555555556}
Identificador => BVXLMz6E0vifOCguOek5
Data => {'message': 'um hum', 'diversity': 0.0, 'order': 111, 'id': 'BVXLMz6E0vifOCguOek5', 'novelty': 0.8666666666666667}
Identificador => Bv12gCyiEcRgs21PT3NZ
Data => {'message': 'no no way that was i say where <name> again i didnt start till', 'id': 'Bv12gCyiEcRgs21PT3NZ', 'diversity': 0.8235294117647058, 'rating_2': {'email': 'dpumaraime@unsa.edu.pe', 'message_update': False, 'typeacuracy': 'Consistency', 'inteligility': 2}, 'rating_1': {'typeacuracy': "I'm not sure", 'message_update': False, 'email': 'eespinozape@unsa.edu.pe', 'inteligility': 2}, 'order': 99, 'novelty': 0.8181818181818181, 'group_code': 'Com002'}
Identificador => CIE04IaJp1kv1Ok195d9
Data => {'order': 94, 'rating_2': {'inteligility': 4, 'message_update': False, 'typeacuracy': 'Commitment', 'email': 'jvaldiviame@unsa.edu.pe'}, 'id': 'CIE04IaJp1kv1Ok195d9', 'diversity': 0.8, 'novelty': 0.7272727272727273, 'rating_1': {'inteligility': 5, 'typeacuracy': 'Contains no persuasion', 'message_update': False, 'email': 'lmoroco@unsa.edu.pe'}, 'message': 'to do you feel <UNK> outside the parking lot', 'group_code': 'Com010'}
Identificador => CrGc3Zd0brHcnWxH16Ej
Data => {'message': 'i swear it', 'novelty': 0.6, 'order': 146, 'diversity': 0.6666666666666667, 'id': 'CrGc3Zd0brHcnWxH16Ej'}
Identificador => D0NluCCcaA1xLz5X9GBz
Data => {'diversity': 0.75, 'id': 'D0NluCCcaA1xLz5X9GBz', 'novelty': 0.8461538461538461, 'order': 251, 'message': 'car phone'}
Identificador => D2k5p2dmrENQlYj7FFjn
Data => {'message': 'he brought me rach youre fixing to war same goddamn joint these years ago i would jake', 'id': 'D2k5p2dmrENQlYj7FFjn', 'rating_2': {'typeacuracy': "I'm not sure", 'inteligility': 3, 'message_update': False, 'email': 'amendozavil@unsa.edu.pe'}, 'group_code': 'Com008', 'order': 48, 'rating_1': {'message_update': False, 'email': 'jhuaihuah@unsa.edu.pe', 'typeacuracy': "I'm not sure", 'inteligility': 3}, 'novelty': 0.8214285714285714, 'diversity': 0.8571428571428572}
Identificador => D3Vr2wCLkAstt4KRxKPR
Data => {'order': 34, 'diversity': 0.7142857142857143, 'novelty': 0.7692307692307692, 'message': 'tell them to <UNK> me face', 'id': 'D3Vr2wCLkAstt4KRxKPR'}
Identificador => DbS8cnGvpbAxHwVcBcji
Data => {'id': 'DbS8cnGvpbAxHwVcBcji', 'message': 'i wanna see <name> in there', 'novelty': 0.6875, 'diversity': 0.6666666666666667, 'order': 63}
Identificador => DvHIitXM8iED9K7S2KWC
Data => {'group_code': 'Com015', 'diversity': 0.75, 'order': 37, 'rating_2': {'email': 'elipau@unsa.edu.pe', 'typeacuracy': 'Consistency', 'message_update': False, 'inteligility': 3}, 'rating_1': {'email': 'svilcalim@unsa.edu.pe', 'inteligility': 3, 'message_update': False, 'typeacuracy': 'Commitment'}, 'message': 'that and he said its a small damn thing but you got in touch with her face', 'novelty': 0.75, 'id': 'DvHIitXM8iED9K7S2KWC'}
Identificador => ECEILd1RDGXailcaG7fx
Data => {'order': 322, 'diversity': 0.8, 'id': 'ECEILd1RDGXailcaG7fx', 'message': 'so that', 'novelty': 0.75}
Identificador => EH1Kf9auvTtIJjBeONrV
Data => {'diversity': 0.0, 'id': 'EH1Kf9auvTtIJjBeONrV', 'novelty': 0.5, 'order': 81, 'message': 'all right'}
Identificador => EItDGxZljWW8Ud2AdGps
Data => {'diversity': 0.7777777777777778, 'message': 'okay <name> who was around here uh shes', 'novelty': 0.8125, 'order': 234, 'id': 'EItDGxZljWW8Ud2AdGps'}
Identificador => EfRihxADfUhv3s5FdCWP
Data => {'message': 'okay you understand what because im saying which <name>', 'order': 141, 'group_code': 'Com018', 'id': 'EfRihxADfUhv3s5FdCWP', 'diversity': 0.8, 'novelty': 0.7222222222222222}
Identificador => ElU10cAyRHqWUqUsXFcg
Data => {'order': 288, 'id': 'ElU10cAyRHqWUqUsXFcg', 'diversity': 0.84, 'novelty': 0.7916666666666666, 'message': 'hello <name> was don do you know how many times the voice 2 000 huh'}
Identificador => EnFqM5mgpm2ybN2RnYP8
Data => {'diversity': 0.8571428571428572, 'novelty': 0.7916666666666666, 'rating_1': {'email': 'jchavezgue@unsa.edu.pe', 'message_update': 'see ive spent a bullets baby doesnt think i lost ', 'inteligility': 4, 'typeacuracy': 'Liking'}, 'message': 'see ive spent a bullets baby doesnt think i lost my wife comes was goin and all', 'group_code': 'Com007', 'rating_2': {'email': 'imoscosoa@unsa.edu.pe', 'message_update': "see, I've spent a bullets for the baby, my wife doesn't think i lost my money. She comes was going and all", 'typeacuracy': 'Commitment', 'inteligility': 3}, 'id': 'EnFqM5mgpm2ybN2RnYP8', 'order': 5}
Identificador => F3anKEMEm0rarAWr5z2v
Data => {'order': 67, 'group_code': 'Com006', 'diversity': 0.8, 'rating_1': {'message_update': False, 'email': 'fflorezag@unsa.edu.pe', 'typeacuracy': 'Contains no persuasion', 'inteligility': 4}, 'rating_2': {'email': 'hyanquiv@unsa.edu.pe', 'inteligility': 1, 'typeacuracy': "I'm not sure", 'message_update': False}, 'message': '<name> when she heard her friends name revelation 13 john us comes <name> that', 'id': 'F3anKEMEm0rarAWr5z2v', 'novelty': 0.8461538461538461}
Identificador => FMdmsrVuAzf3qFObZaEI
Data => {'diversity': 0.75, 'id': 'FMdmsrVuAzf3qFObZaEI', 'rating_1': {'message_update': 'i dont have the police taken care of a pack of it because of them', 'typeacuracy': 'Commitment', 'inteligility': 4, 'email': 'jhuaihuah@unsa.edu.pe'}, 'message': 'i dont have the police taken care of a pack of it because of them when she', 'rating_2': {'message_update': False, 'inteligility': 3, 'typeacuracy': 'Commitment', 'email': 'amendozavil@unsa.edu.pe'}, 'group_code': 'Com008', 'novelty': 0.6818181818181819, 'order': 294}
Identificador => FRln3tZOLzvVIqYbPklY
Data => {'id': 'FRln3tZOLzvVIqYbPklY', 'diversity': 0.7272727272727273, 'message': 'not <name> there was with a clean time', 'novelty': 0.7647058823529411, 'order': 162}
Identificador => Fcrs0hMaFFZtc7l0dx75
Data => {'group_code': 'Com013', 'message': 'i go with all that receive his uh didnt count', 'rating_1': {'message_update': False, 'email': 'mhilaresa@unsa.edu.pe', 'typeacuracy': 'Contains no persuasion', 'inteligility': 4}, 'id': 'Fcrs0hMaFFZtc7l0dx75', 'order': 308, 'novelty': 0.736842105263158, 'diversity': 0.7272727272727273, 'rating_2': {'inteligility': 1, 'typeacuracy': 'Consistency', 'email': 'mvilchezmo@unsa.edu.pe', 'message_update': False}}
Identificador => FfhjQ5afdBt6EzQjSYHC
Data => {'order': 236, 'message': 'no about your <UNK> you hold on', 'id': 'FfhjQ5afdBt6EzQjSYHC', 'diversity': 0.7777777777777778, 'novelty': 0.7777777777777778}
Identificador => FspMAhfkXHCvzOvFCFrr
Data => {'novelty': 0.75, 'order': 131, 'diversity': 0.6666666666666667, 'id': 'FspMAhfkXHCvzOvFCFrr', 'message': 'why not'}
Identificador => G8xMN7oR1yF9HC6L9xuZ
Data => {'order': 149, 'novelty': 0.75, 'message': 'i understand', 'id': 'G8xMN7oR1yF9HC6L9xuZ', 'diversity': 0.6666666666666667}
Identificador => GA0lF686D7YRoDNsy0WG
Data => {'diversity': 0.75, 'novelty': 0.8, 'order': 253, 'id': 'GA0lF686D7YRoDNsy0WG', 'message': 'shes fine shes a <UNK> down and yeah'}
Identificador => GG8rslLI853Mq4dAp6tX
Data => {'order': 173, 'message': 'her too <name>', 'novelty': 0.7142857142857143, 'diversity': 0.6666666666666667, 'id': 'GG8rslLI853Mq4dAp6tX'}
Identificador => GH0lNVObIY5wSduf69P3
Data => {'diversity': 0.6666666666666667, 'id': 'GH0lNVObIY5wSduf69P3', 'message': 'no im standing here to do', 'order': 88, 'novelty': 0.7272727272727273}
Identificador => GK1FAwUuzUJpEghx5vX4
Data => {'message': '<name> that is alive all right thats all right', 'diversity': 0.7142857142857143, 'novelty': 0.7, 'id': 'GK1FAwUuzUJpEghx5vX4', 'order': 242, 'group_code': 'Com016'}
Identificador => GdjKAuzFWlQviOvgyzCO
Data => {'rating_2': {'inteligility': 1, 'email': 'ehuancap@unsa.edu.pe', 'message_update': False, 'typeacuracy': 'Liking'}, 'group_code': 'Com003', 'diversity': 0.8421052631578947, 'novelty': 0.7777777777777778, 'message': 'go where my mind if they came in gods us either it <name> im not getting her', 'order': 31, 'rating_1': {'email': 'ehuayllasco@unsa.edu.pe', 'inteligility': 2, 'message_update': False, 'typeacuracy': "I'm not sure"}, 'id': 'GdjKAuzFWlQviOvgyzCO'}
Identificador => GlqROWkY27TK8ekZjchG
Data => {'diversity': 0.7647058823529411, 'id': 'GlqROWkY27TK8ekZjchG', 'novelty': 0.75, 'order': 182, 'message': 'i just here ill call'}
Identificador => GmS4huz5Oe6VyncHDRcg
Data => {'rating_1': {'inteligility': 5, 'email': 'lmoroco@unsa.edu.pe', 'typeacuracy': 'Consistency', 'message_update': False}, 'order': 164, 'group_code': 'Com010', 'id': 'GmS4huz5Oe6VyncHDRcg', 'diversity': 0.75, 'rating_2': {'email': 'jvaldiviame@unsa.edu.pe', 'message_update': False, 'inteligility': 4, 'typeacuracy': 'Commitment'}, 'novelty': 0.8, 'message': 'he was that sick of police department oh you know'}
Identificador => H1JxHCsY0dwzu133dg8q
Data => {'order': 266, 'diversity': 0.7142857142857143, 'message': 'would you would like to <ht01_first_name>', 'novelty': 0.6, 'id': 'H1JxHCsY0dwzu133dg8q'}
Identificador => H3mrzVuxbEnpJnj9bhB0
Data => {'id': 'H3mrzVuxbEnpJnj9bhB0', 'novelty': 0.75, 'order': 140, 'diversity': 0.0, 'message': 'i did'}
Identificador => HTx9Sc5BrUilPSgpiuCZ
Data => {'diversity': 0.8, 'message': 'round them could you repeat that they still wheres step', 'novelty': 0.7894736842105263, 'order': 152, 'id': 'HTx9Sc5BrUilPSgpiuCZ'}
Identificador => HfTH8ltHh1QsMWdqKXam
Data => {'id': 'HfTH8ltHh1QsMWdqKXam', 'message': 'me cold', 'novelty': 0.8333333333333334, 'diversity': 0.75, 'order': 52}
Identificador => Hl5M2vPVEZdgwdcDhBeI
Data => {'id': 'Hl5M2vPVEZdgwdcDhBeI', 'order': 154, 'diversity': 0.7142857142857143, 'novelty': 0.7692307692307692, 'message': 'something thats not'}
Identificador => HmHuoaRDaBupTgFX7fgZ
Data => {'diversity': 0.7727272727272727, 'order': 287, 'message': 'i got a <UNK> right <name> i would beat em got the number i can do and', 'novelty': 0.7142857142857143, 'id': 'HmHuoaRDaBupTgFX7fgZ'}
Identificador => IColIfFYIDrkYu0nbaGW
Data => {'id': 'IColIfFYIDrkYu0nbaGW', 'message': 'thats thats serious who the whole clip huh', 'novelty': 0.8333333333333334, 'order': 165, 'diversity': 0.8333333333333334}
Identificador => IRpSaOl4bLmvMpakw3mg
Data => {'message': 'they killed her name <name>', 'diversity': 0.4, 'id': 'IRpSaOl4bLmvMpakw3mg', 'order': 243, 'novelty': 0.7777777777777778}
Identificador => IWWm23Ar0UuAtNmFuC9I
Data => {'diversity': 0.0, 'novelty': 0.8333333333333334, 'message': '<name> please', 'order': 319, 'id': 'IWWm23Ar0UuAtNmFuC9I'}
Identificador => IeKInsIeZRKuBYJahQ2j
Data => {'diversity': 0.8421052631578947, 'message': 'im not doing it for your life <name> ask you this one up at the', 'rating_2': {'message_update': False, 'typeacuracy': 'Consistency', 'email': 'mherreraco@unsa.edu.pe', 'inteligility': 3}, 'id': 'IeKInsIeZRKuBYJahQ2j', 'order': 184, 'group_code': 'Com012', 'rating_1': {'inteligility': 2, 'message_update': False, 'typeacuracy': 'Liking', 'email': 'lvillanuevaf@unsa.edu.pe'}, 'novelty': 0.7083333333333333}
Identificador => ImkCxQPiNNYzj537iGyC
Data => {'id': 'ImkCxQPiNNYzj537iGyC', 'order': 127, 'message': 'and the glass off her', 'diversity': 0.6666666666666667, 'novelty': 0.7333333333333334}
Identificador => J3gmlJ6gNGVnP3Yfggku
Data => {'message': 'youre on a well im not a hundred percent of all these things', 'rating_2': {'message_update': False, 'inteligility': 3, 'typeacuracy': 'Consistency', 'email': 'mvilchezmo@unsa.edu.pe'}, 'diversity': 0.8, 'group_code': 'Com013', 'id': 'J3gmlJ6gNGVnP3Yfggku', 'novelty': 0.782608695652174, 'rating_1': {'typeacuracy': 'Liking', 'message_update': False, 'inteligility': 5, 'email': 'mhilaresa@unsa.edu.pe'}, 'order': 280}
Identificador => JFv6W4OU3eXjJeqoq4Qy
Data => {'novelty': 0.8125, 'message': 'her she lives on [indiscernible]', 'id': 'JFv6W4OU3eXjJeqoq4Qy', 'diversity': 0.7777777777777778, 'order': 75}
Identificador => JGXXNT854GgsbslbuCr5
Data => {'group_code': 'Com017', 'order': 2, 'novelty': 0.76, 'diversity': 0.8148148148148149, 'id': 'JGXXNT854GgsbslbuCr5', 'message': 'what did you say it went past different the <UNK> we dont get here from <place> would'}
Identificador => JJIzxlpkeVQJGOqfbvHQ
Data => {'id': 'JJIzxlpkeVQJGOqfbvHQ', 'diversity': 0.0, 'order': 30, 'message': 'all right', 'novelty': 0.5}
Identificador => JV7uM4Qw4Q91YKh8p7YJ
Data => {'novelty': 0.6923076923076923, 'id': 'JV7uM4Qw4Q91YKh8p7YJ', 'diversity': 0.7333333333333334, 'group_code': 'Com012', 'message': 'they get my life i wanna talk to her first', 'rating_1': {'inteligility': 3, 'email': 'lvillanuevaf@unsa.edu.pe', 'typeacuracy': 'Commitment', 'message_update': False}, 'rating_2': {'typeacuracy': 'Liking', 'email': 'mherreraco@unsa.edu.pe', 'message_update': False, 'inteligility': 4}, 'order': 175}
Identificador => JX8OASEsCEZ6dBkGKu27
Data => {'message': 'all right', 'id': 'JX8OASEsCEZ6dBkGKu27', 'order': 186, 'diversity': 0.0, 'novelty': 0.5}
Identificador => KPXUVYRUx9iDAvgVOkqx
Data => {'message': 'oh yeah', 'id': 'KPXUVYRUx9iDAvgVOkqx', 'diversity': 0.0, 'order': 301, 'novelty': 0.8181818181818181}
Identificador => KSZUCy9XNop5U3jrVNWg
Data => {'message': 'tell me the <UNK> and everything did they were hoping that wasnt getting for puerto you for', 'diversity': 0.75, 'order': 66, 'novelty': 0.7391304347826086, 'id': 'KSZUCy9XNop5U3jrVNWg'}
Identificador => Ke0iqXkKL90MlfD1gyxO
Data => {'id': 'Ke0iqXkKL90MlfD1gyxO', 'order': 41, 'message': 'my left side', 'novelty': 0.8571428571428572, 'diversity': 0.75}
Identificador => KjgdWaagtYSvDWlAEKeD
Data => {'message': 'with you', 'novelty': 0.6, 'diversity': 0.5, 'id': 'KjgdWaagtYSvDWlAEKeD', 'order': 320}
Identificador => L8H0Zi87ZbvqkTG9ALqb
Data => {'message': 'um hum', 'novelty': 0.8666666666666667, 'diversity': 0.0, 'id': 'L8H0Zi87ZbvqkTG9ALqb', 'order': 62}
Identificador => LFP699GGAW5x4UonZJEO
Data => {'group_code': 'Com005', 'novelty': 0.7, 'order': 274, 'rating_1': {'message_update': False, 'inteligility': 5, 'typeacuracy': 'Commitment', 'email': 'etorresq@unsa.edu.pe'}, 'diversity': 0.8125, 'id': 'LFP699GGAW5x4UonZJEO', 'message': 'no thats my home my nephew comes to talk to you now', 'rating_2': {'email': 'lmurillo@unsa.edu.pe', 'typeacuracy': 'Commitment', 'message_update': False, 'inteligility': 4}}
Identificador => LYwWzyNVz6mrFwHwgKtp
Data => {'order': 113, 'message': 'no i would have been through lights this guy i was doing', 'group_code': 'Com015', 'diversity': 0.8125, 'novelty': 0.8, 'id': 'LYwWzyNVz6mrFwHwgKtp', 'rating_1': {'inteligility': 2, 'typeacuracy': 'Contains no persuasion', 'email': 'svilcalim@unsa.edu.pe', 'message_update': False}, 'rating_2': {'email': 'elipau@unsa.edu.pe', 'inteligility': 3, 'message_update': False, 'typeacuracy': 'Consistency'}}
Identificador => MPKHWVjz0sBQVQiNNVEP
Data => {'order': 255, 'diversity': 0.0, 'novelty': 0.5, 'id': 'MPKHWVjz0sBQVQiNNVEP', 'message': 'all right'}
Identificador => MRcSMehqCIujaK4M2eQZ
Data => {'message': 'and <name> is hold on lorraine we wanna talk to me and i know that', 'novelty': 0.631578947368421, 'diversity': 0.6470588235294117, 'order': 273, 'group_code': 'Com019', 'id': 'MRcSMehqCIujaK4M2eQZ'}
Identificador => MZVlstKOvmD59RHJkj7X
Data => {'message': 'christ you could write it down', 'order': 241, 'id': 'MZVlstKOvmD59RHJkj7X', 'novelty': 0.7857142857142857, 'diversity': 0.8181818181818181}
Identificador => MjzKFBlwfrtdP827Ub0v
Data => {'order': 47, 'id': 'MjzKFBlwfrtdP827Ub0v', 'group_code': 'Com019', 'message': 'no she said they left yet [unidentified_voice_in_background_not_discernible] wait but i got two of them', 'novelty': 0.8333333333333334, 'diversity': 0.7777777777777778}
Identificador => MqcPU482Yqsu2SNfW4ka
Data => {'order': 68, 'id': 'MqcPU482Yqsu2SNfW4ka', 'novelty': 0.8571428571428572, 'message': 'youre in <UNK>', 'diversity': 0.75}
Identificador => MxmQjOekC3GnBiCmgrxx
Data => {'diversity': 1.0, 'message': 'okie doke', 'novelty': 0.875, 'id': 'MxmQjOekC3GnBiCmgrxx', 'order': 172}
Identificador => N6bR6zmaNEKmMlOumxzX
Data => {'message': 'i did you hear what do they got her out there', 'id': 'N6bR6zmaNEKmMlOumxzX', 'rating_2': {'email': 'lmurillo@unsa.edu.pe', 'inteligility': 4, 'typeacuracy': 'Liking', 'message_update': False}, 'order': 159, 'rating_1': {'email': 'etorresq@unsa.edu.pe', 'message_update': False, 'typeacuracy': "I'm not sure", 'inteligility': 5}, 'novelty': 0.6666666666666667, 'diversity': 0.7272727272727273, 'group_code': 'Com005'}
Identificador => NHz89rVHTfbKvfuP28RU
Data => {'rating_1': {'typeacuracy': 'Consistency', 'email': 'sromeroc@unsa.edu.pe', 'message_update': False, 'inteligility': 3}, 'diversity': 0.8333333333333334, 'novelty': 0.8421052631578947, 'id': 'NHz89rVHTfbKvfuP28RU', 'rating_2': {'typeacuracy': 'Commitment', 'message_update': False, 'inteligility': 3, 'email': 'scutipaay@unsa.edu.pe'}, 'message': 'the reason being <UNK> by the plane away this tape fucking neither', 'order': 85, 'group_code': 'Com014'}
Identificador => NVdSWCdH5TuEqA48xvRs
Data => {'novelty': 0.8, 'message': 'know shes alive', 'order': 291, 'id': 'NVdSWCdH5TuEqA48xvRs', 'diversity': 0.75}
Identificador => Nafz82fpEKuOnle0M2gl
Data => {'id': 'Nafz82fpEKuOnle0M2gl', 'novelty': 0.8571428571428572, 'diversity': 0.6666666666666667, 'message': 'whats happening', 'order': 6}
Identificador => Ng4YD6yiSKXxyChSFEEM
Data => {'novelty': 0.875, 'order': 61, 'id': 'Ng4YD6yiSKXxyChSFEEM', 'message': 'until cops hes taking rita', 'diversity': 0.8333333333333334}
Identificador => NgmGJ71RjQ40kBPahqK3
Data => {'diversity': 0.75, 'id': 'NgmGJ71RjQ40kBPahqK3', 'order': 69, 'novelty': 0.5, 'message': 'come out'}
Identificador => No7T8AhZv2zNdTZd06hb
Data => {'rating_2': {'message_update': False, 'email': 'elipat@unsa.edu.pe', 'typeacuracy': 'Commitment', 'inteligility': 4}, 'rating_1': {'typeacuracy': 'Consistency', 'message_update': False, 'inteligility': 3, 'email': 'jperca@unsa.edu.pe'}, 'id': 'No7T8AhZv2zNdTZd06hb', 'novelty': 0.8095238095238095, 'order': 1, 'group_code': 'Com009', 'diversity': 0.8, 'message': 'the only thing at least he doesnt wanna tell have the money'}
Identificador => NodCwct5H6LhzokgD4Ye
Data => {'novelty': 0.8235294117647058, 'order': 198, 'diversity': 0.75, 'message': 'im just asking', 'id': 'NodCwct5H6LhzokgD4Ye'}
Identificador => NonVLidxosTDbOYYlCCk
Data => {'novelty': 0.7857142857142857, 'message': 'this is it', 'diversity': 0.75, 'order': 87, 'id': 'NonVLidxosTDbOYYlCCk'}
Identificador => O6Ankayd3RzMFbilWv63
Data => {'order': 233, 'novelty': 0.6153846153846154, 'id': 'O6Ankayd3RzMFbilWv63', 'diversity': 0.6, 'message': 'i keep talking to you all right'}
Identificador => OaElbTN4GgnR6hp9DHO0
Data => {'rating_1': {'message_update': False, 'email': 'lmoroco@unsa.edu.pe', 'inteligility': 5, 'typeacuracy': 'Commitment'}, 'novelty': 0.8260869565217391, 'order': 56, 'rating_2': {'inteligility': 4, 'typeacuracy': 'Commitment', 'email': 'jvaldiviame@unsa.edu.pe', 'message_update': False}, 'message': 'what did she is my wife comes here she would shoot anybody before', 'group_code': 'Com010', 'diversity': 0.84, 'id': 'OaElbTN4GgnR6hp9DHO0'}
Identificador => Ob3DRyS9ew7tAZbD892S
Data => {'id': 'Ob3DRyS9ew7tAZbD892S', 'novelty': 0.7083333333333333, 'diversity': 0.7391304347826086, 'order': 293, 'message': 'okay hold on lorraine let me think you mind i gave me the <UNK> but me to'}
Identificador => OfzpBagUtPigk6c4mJ2X
Data => {'novelty': 0.8823529411764706, 'diversity': 0.8888888888888888, 'message': 'your repeating yourself officer', 'id': 'OfzpBagUtPigk6c4mJ2X', 'order': 144}
Identificador => Or0ZsPS9tXGYopGlPYrJ
Data => {'id': 'Or0ZsPS9tXGYopGlPYrJ', 'rating_1': {'typeacuracy': "I'm not sure", 'message_update': False, 'email': 'mhilaresa@unsa.edu.pe', 'inteligility': 3}, 'message': 'youre no she hasnt talked to her first that makes sense yeah youre all right', 'order': 168, 'group_code': 'Com013', 'novelty': 0.8235294117647058, 'diversity': 0.7894736842105263, 'rating_2': {'message_update': False, 'inteligility': 4, 'email': 'mvilchezmo@unsa.edu.pe', 'typeacuracy': 'Liking'}}
Identificador => PLMORgSTxWAYEpXfAEF4
Data => {'novelty': 0.5, 'order': 3, 'id': 'PLMORgSTxWAYEpXfAEF4', 'message': 'ok <UNK>', 'diversity': 0.6666666666666667}
Identificador => PSZM9KXnvMVQDGSjq5Dq
Data => {'order': 297, 'group_code': 'Com015', 'id': 'PSZM9KXnvMVQDGSjq5Dq', 'rating_1': {'typeacuracy': 'Consistency', 'inteligility': 5, 'message_update': False, 'email': 'svilcalim@unsa.edu.pe'}, 'novelty': 0.7333333333333334, 'diversity': 0.7857142857142857, 'message': 'no i need she helped her to the precinct', 'rating_2': {'email': 'elipau@unsa.edu.pe', 'inteligility': 3, 'message_update': False, 'typeacuracy': 'Commitment'}}
Identificador => PXN83huK1F5wm0SpLS63
Data => {'novelty': 0.75, 'order': 180, 'id': 'PXN83huK1F5wm0SpLS63', 'diversity': 0.75, 'message': 'okay give her bottle'}
Identificador => PgZ5W5Zj0TaA4wbMcQ82
Data => {'id': 'PgZ5W5Zj0TaA4wbMcQ82', 'order': 13, 'novelty': 0.8571428571428572, 'diversity': 0.75, 'message': 'too late'}
Identificador => Prs4xIIe2c9sCHxnCu6u
Data => {'message': 'what when im real doing to hang man and <name>', 'id': 'Prs4xIIe2c9sCHxnCu6u', 'diversity': 0.8, 'group_code': 'Com014', 'order': 83, 'novelty': 0.7619047619047619, 'rating_2': {'typeacuracy': 'Commitment', 'email': 'scutipaay@unsa.edu.pe', 'inteligility': 3, 'message_update': "what I'm really going to do is hang man and..."}, 'rating_1': {'email': 'sromeroc@unsa.edu.pe', 'message_update': False, 'typeacuracy': 'Contains no persuasion', 'inteligility': 2}}
Identificador => Q11OI7pu7JHzRalNzjBM
Data => {'order': 136, 'novelty': 0.6956521739130435, 'id': 'Q11OI7pu7JHzRalNzjBM', 'group_code': 'Com004', 'rating_1': {'message_update': False, 'typeacuracy': "I'm not sure", 'email': 'equinonez@unsa.edu.pe', 'inteligility': 1}, 'rating_2': {'message_update': False, 'typeacuracy': 'Commitment', 'inteligility': 2, 'email': 'epalli@unsa.edu.pe'}, 'message': '<pn1> was children gonna talk sometimes you should <UNK> the <UNK> he sat and let me die', 'diversity': 0.8}
Identificador => QAWQQ6xMdGEgoGU9pGpb
Data => {'novelty': 0.7692307692307692, 'order': 147, 'message': 'did tell me that', 'id': 'QAWQQ6xMdGEgoGU9pGpb', 'diversity': 0.75}
Identificador => QHXYHK3hT09e1j3vb8eN
Data => {'novelty': 0.8, 'id': 'QHXYHK3hT09e1j3vb8eN', 'message': 'and my old', 'diversity': 0.6666666666666667, 'order': 232}
Identificador => QU6WqiQPzgUOGAFlTdZY
Data => {'novelty': 0.76, 'id': 'QU6WqiQPzgUOGAFlTdZY', 'diversity': 0.84, 'order': 220, 'message': 'okay ill do <name> something shes not talking about the national christian broadcasting network all right'}
Identificador => QYYKGw4G21WHj4f3AWOA
Data => {'novelty': 0.75, 'diversity': 0.8125, 'id': 'QYYKGw4G21WHj4f3AWOA', 'rating_2': {'inteligility': 5, 'message_update': False, 'email': 'imoscosoa@unsa.edu.pe', 'typeacuracy': 'Liking'}, 'rating_1': {'message_update': False, 'inteligility': 5, 'typeacuracy': 'Consistency', 'email': 'jchavezgue@unsa.edu.pe'}, 'message': 'i feel the hells down gonna find her before right', 'order': 213, 'group_code': 'Com007'}
Identificador => RGBwNIA4cFGW9MpPo5wE
Data => {'message': 'she was', 'order': 209, 'id': 'RGBwNIA4cFGW9MpPo5wE', 'novelty': 0.8461538461538461, 'diversity': 0.6666666666666667}
Identificador => RMzzs3Wpml3tUpvHWnL7
Data => {'order': 27, 'group_code': 'Com016', 'novelty': 0.76, 'diversity': 0.75, 'message': 'i going to he was a big help to <UNK> something could be home now you said', 'id': 'RMzzs3Wpml3tUpvHWnL7'}
Identificador => Rb72iuQW6Kq7Gp6jQ6yY
Data => {'novelty': 0.8125, 'rating_2': {'inteligility': 4, 'typeacuracy': 'Liking', 'email': 'lmurillo@unsa.edu.pe', 'message_update': False}, 'diversity': 0.8125, 'id': 'Rb72iuQW6Kq7Gp6jQ6yY', 'order': 246, 'message': 'going to give her up <name> now idea even lay much worse huh', 'group_code': 'Com005', 'rating_1': {'message_update': False, 'email': 'etorresq@unsa.edu.pe', 'typeacuracy': 'Commitment', 'inteligility': 5}}
Identificador => Rqum0DqGbdYlLpeS1zAF
Data => {'group_code': 'Com006', 'rating_1': {'typeacuracy': 'Consistency', 'message_update': False, 'inteligility': 4, 'email': 'fflorezag@unsa.edu.pe'}, 'diversity': 0.75, 'rating_2': {'message_update': 'Will we know that she is alive? Put it on the radio', 'inteligility': 3, 'email': 'hyanquiv@unsa.edu.pe', 'typeacuracy': 'Commitment'}, 'message': 'will be you know shes alive ive gone through thats the radio', 'order': 39, 'novelty': 0.7619047619047619, 'id': 'Rqum0DqGbdYlLpeS1zAF'}
Identificador => RuZLHc5wVBuGTf6KKpV9
Data => {'id': 'RuZLHc5wVBuGTf6KKpV9', 'message': 'so what you gotta prove', 'diversity': 0.7777777777777778, 'order': 79, 'novelty': 0.7692307692307692}
Identificador => RyR0m9GmLCvXSvmzcIEF
Data => {'message': 'what the hell i would have to go', 'diversity': 0.7777777777777778, 'id': 'RyR0m9GmLCvXSvmzcIEF', 'novelty': 0.6875, 'order': 235}
Identificador => SK6LF4wqfejfrbNhqIl5
Data => {'diversity': 0.75, 'message': '<UNK> and they brought her home and shes here', 'novelty': 0.7777777777777778, 'order': 35, 'id': 'SK6LF4wqfejfrbNhqIl5', 'group_code': 'Com016'}
Identificador => SOUvApTPj85QAtQGlYBY
Data => {'id': 'SOUvApTPj85QAtQGlYBY', 'order': 51, 'novelty': 0.8461538461538461, 'diversity': 0.75, 'message': 'for my head'}
Identificador => SThVa6zDy02epUumfM2g
Data => {'novelty': 0.7142857142857143, 'message': 'okay i have <prisoners_middle_name> here i couldnt', 'diversity': 0.7777777777777778, 'order': 309, 'id': 'SThVa6zDy02epUumfM2g'}
Identificador => SZDpXsth984b5dTa3sRS
Data => {'id': 'SZDpXsth984b5dTa3sRS', 'message': 'no but a stretcher <UNK> thats prime time im <UNK> here im a white going to do', 'diversity': 0.6666666666666667, 'rating_1': {'typeacuracy': 'Commitment', 'inteligility': 1, 'message_update': False, 'email': 'jperca@unsa.edu.pe'}, 'order': 317, 'group_code': 'Com009', 'novelty': 0.7727272727272727, 'rating_2': {'message_update': False, 'typeacuracy': "I'm not sure", 'inteligility': 3, 'email': 'elipat@unsa.edu.pe'}}
Identificador => TawZiWe4HGEKceFoZHkG
Data => {'order': 247, 'novelty': 0.75, 'message': '<name> dont lie', 'id': 'TawZiWe4HGEKceFoZHkG', 'diversity': 0.7142857142857143}
Identificador => TbuGI8miC0HdduQYx3Dw
Data => {'diversity': 0.6666666666666667, 'message': 'no no no', 'order': 169, 'novelty': 0.8, 'id': 'TbuGI8miC0HdduQYx3Dw'}
Identificador => To9qICbL8FwDqzG0deFp
Data => {'novelty': 0.7727272727272727, 'message': 'they think this guy and well youre going to let them to raise money with cuffs and', 'rating_2': {'email': 'epalli@unsa.edu.pe', 'typeacuracy': 'Liking', 'message_update': False, 'inteligility': 2}, 'rating_1': {'email': 'equinonez@unsa.edu.pe', 'typeacuracy': "I'm not sure", 'message_update': False, 'inteligility': 2}, 'diversity': 0.85, 'id': 'To9qICbL8FwDqzG0deFp', 'order': 8, 'group_code': 'Com004'}
Identificador => U33SXkqdkALS7w670NsR
Data => {'message': 'how about me <ht01_first_name>', 'order': 137, 'id': 'U33SXkqdkALS7w670NsR', 'novelty': 0.7857142857142857, 'diversity': 0.6}
Identificador => UGPxpMOnZvBAqPkfOo5U
Data => {'order': 282, 'novelty': 0.7142857142857143, 'diversity': 0.5, 'id': 'UGPxpMOnZvBAqPkfOo5U', 'message': 'thats all i got to <UNK>'}
Identificador => UGWwch15b8ulFs0dHWd7
Data => {'order': 104, 'message': 'i dont know how to let do that later', 'diversity': 0.7, 'novelty': 0.6666666666666667, 'id': 'UGWwch15b8ulFs0dHWd7', 'rating_2': {'email': 'mherreraco@unsa.edu.pe', 'inteligility': 5, 'message_update': False, 'typeacuracy': 'Commitment'}, 'rating_1': {'message_update': False, 'email': 'lvillanuevaf@unsa.edu.pe', 'inteligility': 3, 'typeacuracy': 'Liking'}, 'group_code': 'Com012'}
Identificador => UhB2r9j05G2mAMJr4hF9
Data => {'id': 'UhB2r9j05G2mAMJr4hF9', 'message': 'youre telling me a little nervous they can bring my wife back', 'order': 187, 'rating_2': {'email': 'abejar@unsa.edu.pe', 'inteligility': 4, 'message_update': False, 'typeacuracy': 'Consistency'}, 'diversity': 0.875, 'rating_1': {'typeacuracy': 'Commitment', 'message_update': False, 'email': 'alajoa@unsa.edu.pe', 'inteligility': 4}, 'group_code': 'Com001', 'novelty': 0.8095238095238095}
Identificador => VJrmyGufymH2PQcwr9eh
Data => {'message': 'i went on somebodys apartment i dont lie to me', 'diversity': 0.75, 'novelty': 0.6875, 'id': 'VJrmyGufymH2PQcwr9eh', 'order': 272}
Identificador => VN6sUsxmCGxJyd1EeSWm
Data => {'message': 'what <name> thats if you all right but its the same bullshit that theyd let at cops', 'order': 264, 'diversity': 0.736842105263158, 'id': 'VN6sUsxmCGxJyd1EeSWm', 'novelty': 0.7083333333333333, 'group_code': 'Com019'}
Identificador => VRr6TloAx2UBc0Xi27u3
Data => {'order': 150, 'novelty': 0.875, 'message': 'yeah um hum', 'id': 'VRr6TloAx2UBc0Xi27u3', 'diversity': 0.33333333333333337}
Identificador => VTusQ5vheAcd1KH10kOE
Data => {'id': 'VTusQ5vheAcd1KH10kOE', 'order': 313, 'message': 'got a <UNK>', 'diversity': 0.6666666666666667, 'novelty': 0.8}
Identificador => VeYFRGkaAoSLbZHxsqA4
Data => {'message': 'all right i dont understand i know', 'novelty': 0.6923076923076923, 'diversity': 0.5555555555555556, 'id': 'VeYFRGkaAoSLbZHxsqA4', 'order': 303}
Identificador => VwAJkytiZq0S1Nqry0iy
Data => {'order': 18, 'diversity': 0.0, 'message': 'um hum', 'novelty': 0.8666666666666667, 'id': 'VwAJkytiZq0S1Nqry0iy'}
Identificador => VxOkPtqKYbq91BwGfaeG
Data => {'novelty': 0.6, 'id': 'VxOkPtqKYbq91BwGfaeG', 'order': 128, 'diversity': 0.75, 'message': 'okay you gotta come out on that there okay'}
Identificador => VyL7PxsLSR8tHQWZTNBr
Data => {'novelty': 0.8, 'id': 'VyL7PxsLSR8tHQWZTNBr', 'diversity': 0.5714285714285714, 'order': 217, 'message': 'how many rounds did i did have'}
Identificador => W3M5Gjnz8JMFKRDeAlcq
Data => {'id': 'W3M5Gjnz8JMFKRDeAlcq', 'order': 78, 'novelty': 0.6666666666666667, 'message': 'okay but now', 'diversity': 0.75}
Identificador => W48IcD2sdfsXFaNohSv9
Data => {'message': 'whats happening if they put <name>', 'novelty': 0.8125, 'id': 'W48IcD2sdfsXFaNohSv9', 'diversity': 0.6666666666666667, 'order': 305}
Identificador => W8zEP2BCNqJDlrL8C7Hl
Data => {'message': 'okay i got all these things', 'novelty': 0.7142857142857143, 'diversity': 0.6666666666666667, 'id': 'W8zEP2BCNqJDlrL8C7Hl', 'order': 298}
Identificador => WVfAaK7L6KQVthjtpD7U
Data => {'novelty': 0.6666666666666667, 'id': 'WVfAaK7L6KQVthjtpD7U', 'message': 'me to out', 'diversity': 0.6, 'order': 116}
Identificador => Wjg3ucoWC5s6xdzAOzyD
Data => {'diversity': 0.7894736842105263, 'novelty': 0.8333333333333334, 'id': 'Wjg3ucoWC5s6xdzAOzyD', 'order': 218, 'message': 'yeah sure that everythings gonna <UNK> heres gonna hold off it i cant keep calling her eyes', 'group_code': 'Com016'}
Identificador => Ws4NnlC7kit5rQ2Z7qfq
Data => {'id': 'Ws4NnlC7kit5rQ2Z7qfq', 'order': 14, 'diversity': 0.5, 'message': 'im not', 'novelty': 0.75}
Identificador => Wto9AiSJ31JWNEsbASs0
Data => {'rating_2': {'email': 'elipau@unsa.edu.pe', 'typeacuracy': 'Consistency', 'message_update': False, 'inteligility': 4}, 'message': 'the other guy youre sittin here where hes taking rita for themselves the cia an mom is', 'diversity': 0.8333333333333334, 'order': 300, 'rating_1': {'message_update': False, 'inteligility': 3, 'email': 'svilcalim@unsa.edu.pe', 'typeacuracy': 'Contains no persuasion'}, 'id': 'Wto9AiSJ31JWNEsbASs0', 'novelty': 0.8333333333333334, 'group_code': 'Com015'}
Identificador => WwvIKAXGkP1sn6UHSXv6
Data => {'diversity': 0.8571428571428572, 'novelty': 0.75, 'message': 'then have', 'order': 42, 'id': 'WwvIKAXGkP1sn6UHSXv6'}
Identificador => X6gwfTuxKHIWBZG919k1
Data => {'diversity': 0.8333333333333334, 'novelty': 0.8125, 'message': 'word tell her over', 'order': 36, 'id': 'X6gwfTuxKHIWBZG919k1'}
Identificador => XGy45omSs6dGWqxpqCCb
Data => {'id': 'XGy45omSs6dGWqxpqCCb', 'diversity': 0.7777777777777778, 'order': 197, 'novelty': 0.8181818181818181, 'message': 'you said shes not gonna hold off something'}
Identificador => XP6TW8s3Onbgjqu2Au2z
Data => {'message': 'but it', 'order': 26, 'novelty': 0.7777777777777778, 'id': 'XP6TW8s3Onbgjqu2Au2z', 'diversity': 0.75}
Identificador => XQ4bYqVnCKD6jRAlCGLi
Data => {'message': 'car they shot', 'id': 'XQ4bYqVnCKD6jRAlCGLi', 'diversity': 0.75, 'order': 50, 'novelty': 0.9230769230769231}
Identificador => XcNCN8vTSA46dDwCclqn
Data => {'novelty': 0.6666666666666667, 'diversity': 0.33333333333333337, 'message': 'i you know', 'id': 'XcNCN8vTSA46dDwCclqn', 'order': 285}
Identificador => XlVHn9ho39J6Mlk00ev0
Data => {'diversity': 0.7142857142857143, 'id': 'XlVHn9ho39J6Mlk00ev0', 'novelty': 0.8, 'order': 189, 'message': 'back here <name>'}
Identificador => Y1hqSPp2dTk18ZxIBApO
Data => {'novelty': 0.8, 'id': 'Y1hqSPp2dTk18ZxIBApO', 'message': 'if i dont get him that shell be <UNK> she never even off then i cant make', 'diversity': 0.8148148148148149, 'order': 119, 'rating_1': {'message_update': False, 'inteligility': 4, 'typeacuracy': 'Liking', 'email': 'mhilaresa@unsa.edu.pe'}, 'group_code': 'Com013', 'rating_2': {'message_update': False, 'inteligility': 3, 'email': 'mvilchezmo@unsa.edu.pe', 'typeacuracy': 'Consistency'}}
Identificador => Y5m8RcCiTxaUWujmy8pi
Data => {'diversity': 0.7647058823529411, 'id': 'Y5m8RcCiTxaUWujmy8pi', 'rating_2': {'message_update': False, 'typeacuracy': "I'm not sure", 'inteligility': 2, 'email': 'ehuancap@unsa.edu.pe'}, 'order': 80, 'message': 'you got the in my <UNK> the whole fucking chest pains with the fucking gun for me', 'novelty': 0.7391304347826086, 'group_code': 'Com003', 'rating_1': {'message_update': False, 'inteligility': 4, 'email': 'ehuayllasco@unsa.edu.pe', 'typeacuracy': 'Consistency'}}
Identificador => YhGozRXusb6reSqNE8pE
Data => {'order': 227, 'diversity': 0.33333333333333337, 'novelty': 0.6666666666666667, 'id': 'YhGozRXusb6reSqNE8pE', 'message': 'and <name>'}
Identificador => YhipBUfTiBqC5aOVTxyn
Data => {'id': 'YhipBUfTiBqC5aOVTxyn', 'diversity': 0.6666666666666667, 'message': 'go where', 'novelty': 0.75, 'order': 311}
Identificador => YshUYmij4kJlBSecVCRr
Data => {'novelty': 0.7, 'id': 'YshUYmij4kJlBSecVCRr', 'diversity': 0.75, 'message': 'you help i could couldnt put you up', 'order': 156}
Identificador => Yua7HMDs0nJud1563UpQ
Data => {'novelty': 0.6, 'order': 244, 'id': 'Yua7HMDs0nJud1563UpQ', 'diversity': 0.6, 'message': 'i dont care about it'}
Identificador => Z62NOKLRtRQ9ApXXrR2D
Data => {'order': 245, 'message': 'i know', 'novelty': 0.75, 'id': 'Z62NOKLRtRQ9ApXXrR2D', 'diversity': 0.0}
Identificador => ZGKp89F6Vi3AValI0NoD
Data => {'message': 'why because she was gonna stick by me', 'order': 178, 'diversity': 0.75, 'id': 'ZGKp89F6Vi3AValI0NoD', 'novelty': 0.8181818181818181}
Identificador => ZcxrySwX5qswWRP9nFKd
Data => {'diversity': 0.625, 'order': 281, 'novelty': 0.75, 'id': 'ZcxrySwX5qswWRP9nFKd', 'message': 'the only way that'}
Identificador => Zh7srNcCPVUOIOuPB05c
Data => {'group_code': 'Com017', 'message': 'yeah thats fine i was my father they break laws', 'diversity': 0.8181818181818181, 'id': 'Zh7srNcCPVUOIOuPB05c', 'novelty': 0.8421052631578947, 'order': 191}
Identificador => aPHFnUkvjuYGuGH6qmPm
Data => {'rating_2': {'email': 'scutipaay@unsa.edu.pe', 'message_update': 'that being said, you promised to keep a little closer and I have had a fucking pains', 'typeacuracy': 'Commitment', 'inteligility': 3}, 'diversity': 0.8, 'id': 'aPHFnUkvjuYGuGH6qmPm', 'message': 'that said you promised me a little closer keep had a fucking pains these guys buddy', 'order': 270, 'novelty': 0.8076923076923077, 'group_code': 'Com014', 'rating_1': {'inteligility': 3, 'typeacuracy': 'Liking', 'email': 'sromeroc@unsa.edu.pe', 'message_update': False}}
Identificador => abcUPl479B5MNEWxf49V
Data => {'diversity': 0.7727272727272727, 'rating_2': {'typeacuracy': 'Commitment', 'email': 'mvilchezmo@unsa.edu.pe', 'inteligility': 3, 'message_update': False}, 'novelty': 0.75, 'id': 'abcUPl479B5MNEWxf49V', 'message': 'to <name> to come up to <name> right now right thanks a <UNK> again ill do im', 'order': 145, 'rating_1': {'message_update': False, 'inteligility': 4, 'typeacuracy': 'Liking', 'email': 'mhilaresa@unsa.edu.pe'}, 'group_code': 'Com013'}
Identificador => bR0dMkf1gJmdPhOTwEqk
Data => {'diversity': 0.85, 'message': 'air control i 5 start away from her kids last name again hes', 'id': 'bR0dMkf1gJmdPhOTwEqk', 'order': 55, 'novelty': 0.8636363636363636}
Identificador => badWoWV1Jh2kv3ggM4bJ
Data => {'group_code': 'Com002', 'message': 'all right i know that i know you really oughta let everybody go', 'rating_2': {'typeacuracy': 'Commitment', 'message_update': False, 'email': 'dpumaraime@unsa.edu.pe', 'inteligility': 4}, 'diversity': 0.6923076923076923, 'order': 9, 'rating_1': {'email': 'eespinozape@unsa.edu.pe', 'inteligility': 4, 'message_update': 'all right i know that you really oughta let everybody go', 'typeacuracy': 'Consistency'}, 'novelty': 0.6842105263157895, 'id': 'badWoWV1Jh2kv3ggM4bJ'}
Identificador => bbfp5ruqi2PaGKzS8Q5U
Data => {'diversity': 0.6666666666666667, 'message': 'theyre <UNK>', 'order': 10, 'id': 'bbfp5ruqi2PaGKzS8Q5U', 'novelty': 0.9166666666666666}
Identificador => beYA350iQP0vWOqv9FGz
Data => {'order': 314, 'id': 'beYA350iQP0vWOqv9FGz', 'novelty': 0.8, 'diversity': 0.6666666666666667, 'message': 'with <name>'}
Identificador => cUgS0XwtWQcYeHcmFId8
Data => {'order': 226, 'group_code': 'Com007', 'diversity': 0.8181818181818181, 'novelty': 0.8125, 'id': 'cUgS0XwtWQcYeHcmFId8', 'rating_1': {'message_update': False, 'inteligility': 2, 'email': 'jchavezgue@unsa.edu.pe', 'typeacuracy': 'Contains no persuasion'}, 'message': 'sitting in my kids tear the hood of the porch', 'rating_2': {'typeacuracy': 'Consistency', 'message_update': 'kids are tearing sitting in hood of the porch', 'email': 'imoscosoa@unsa.edu.pe', 'inteligility': 4}}
Identificador => ccsQp31KZPIqx1ANmshQ
Data => {'id': 'ccsQp31KZPIqx1ANmshQ', 'novelty': 0.8823529411764706, 'diversity': 0.4, 'order': 275, 'message': 'yes im listening'}
Identificador => crirmGF3PvrZo2vR6UBs
Data => {'novelty': 0.9230769230769231, 'diversity': 0.6666666666666667, 'message': 'happened was', 'order': 256, 'id': 'crirmGF3PvrZo2vR6UBs'}
Identificador => csdH3k0a0fnSrpkkPoz7
Data => {'id': 'csdH3k0a0fnSrpkkPoz7', 'novelty': 0.8571428571428572, 'message': 'thats <UNK>', 'order': 190, 'diversity': 0.33333333333333337}
Identificador => d7CFdYfNWpT5b7dM6h6j
Data => {'novelty': 0.7777777777777778, 'order': 262, 'message': 'seem i dont have wanna argue god', 'id': 'd7CFdYfNWpT5b7dM6h6j', 'diversity': 0.7142857142857143}
Identificador => dCqtmpd8aifKmuPE7Bkd
Data => {'id': 'dCqtmpd8aifKmuPE7Bkd', 'rating_2': {'email': 'dpumaraime@unsa.edu.pe', 'typeacuracy': "I'm not sure", 'inteligility': 1, 'message_update': False}, 'group_code': 'Com002', 'order': 177, 'diversity': 0.7647058823529411, 'novelty': 0.7619047619047619, 'message': 'no big deal her on the way the <UNK> all right like', 'rating_1': {'inteligility': 3, 'message_update': False, 'email': 'eespinozape@unsa.edu.pe', 'typeacuracy': 'Commitment'}}
Identificador => dDYFh50HUmhrP4Y0Dabc
Data => {'order': 74, 'message': 'no not under the whole with you', 'diversity': 0.7142857142857143, 'id': 'dDYFh50HUmhrP4Y0Dabc', 'novelty': 0.6666666666666667}
Identificador => dHcjF2mMmp2q2ioaZkr4
Data => {'message': 'well shes all over here theyre they doing theyre i know', 'order': 117, 'novelty': 0.75, 'diversity': 0.7692307692307692, 'id': 'dHcjF2mMmp2q2ioaZkr4'}
Identificador => dI8b3abnONMxCqrBXkIK
Data => {'novelty': 0.7083333333333333, 'group_code': 'Com014', 'rating_2': {'inteligility': 2, 'typeacuracy': "I'm not sure", 'email': 'scutipaay@unsa.edu.pe', 'message_update': False}, 'diversity': 0.7647058823529411, 'id': 'dI8b3abnONMxCqrBXkIK', 'rating_1': {'typeacuracy': "I'm not sure", 'email': 'sromeroc@unsa.edu.pe', 'inteligility': 3, 'message_update': False}, 'order': 33, 'message': '<name> got here ill just when i was born the boss here things to talk too late'}
Identificador => dO3Xa4jhX6RZyDbxQJCd
Data => {'id': 'dO3Xa4jhX6RZyDbxQJCd', 'order': 134, 'novelty': 0.7083333333333333, 'message': 'ninety over so tell the truth i wanna do you think i want em delivered [pause] was', 'group_code': 'Com004', 'diversity': 0.8461538461538461, 'rating_2': {'typeacuracy': 'Contains no persuasion', 'inteligility': 2, 'message_update': False, 'email': 'epalli@unsa.edu.pe'}, 'rating_1': {'email': 'equinonez@unsa.edu.pe', 'message_update': False, 'inteligility': 1, 'typeacuracy': 'Contains no persuasion'}}
Identificador => dPti0linSzDswbflG8PA
Data => {'order': 315, 'novelty': 0.8, 'id': 'dPti0linSzDswbflG8PA', 'message': 'no you didnt theres chrissy', 'diversity': 0.75}
Identificador => drep0ACOO4GbWoa6CmBT
Data => {'id': 'drep0ACOO4GbWoa6CmBT', 'order': 277, 'message': 'you dont want nothing and shell help people an besides kind you should <UNK> to me', 'diversity': 0.75, 'novelty': 0.7272727272727273}
Identificador => eIXzuHgLb9OEBqauozZ5
Data => {'order': 59, 'novelty': 0.8888888888888888, 'message': 'yes sir', 'id': 'eIXzuHgLb9OEBqauozZ5', 'diversity': 0.75}
Identificador => eKKtwJG85AR7aNFPVwTS
Data => {'message': 'i did i do', 'novelty': 0.8, 'diversity': 0.33333333333333337, 'order': 77, 'id': 'eKKtwJG85AR7aNFPVwTS'}
Identificador => eZv5LQeauduCNT7pew0U
Data => {'rating_2': {'message_update': False, 'email': 'epalli@unsa.edu.pe', 'typeacuracy': 'Contains no persuasion', 'inteligility': 2}, 'novelty': 0.736842105263158, 'diversity': 0.6666666666666667, 'order': 122, 'rating_1': {'message_update': False, 'inteligility': 2, 'typeacuracy': "I'm not sure", 'email': 'equinonez@unsa.edu.pe'}, 'message': 'to talk to him i <UNK> <name> because i didnt talk to <name> i believe but you', 'group_code': 'Com004', 'id': 'eZv5LQeauduCNT7pew0U'}
Identificador => eiLPj9KjRNsQGJkcG0GH
Data => {'group_code': 'Com018', 'id': 'eiLPj9KjRNsQGJkcG0GH', 'message': 'charge of <UNK> my this bank because she said i only showed not', 'order': 7, 'diversity': 0.8260869565217391, 'novelty': 0.75}
Identificador => ejrEGlqNe37k1b9cLmSP
Data => {'group_code': 'Com018', 'novelty': 0.6799999999999999, 'message': '<name> was it daniel and kimmie you do that a lot of your people in washington all', 'diversity': 0.8148148148148149, 'id': 'ejrEGlqNe37k1b9cLmSP', 'order': 163}
Identificador => emTlp6o9QduxLKaOClb7
Data => {'novelty': 0.75, 'order': 11, 'message': 'you last name its coats or are you', 'diversity': 0.8, 'id': 'emTlp6o9QduxLKaOClb7'}
Identificador => fowVWhms6RPgnBKiAsAw
Data => {'message': 'no no im almost too', 'id': 'fowVWhms6RPgnBKiAsAw', 'novelty': 0.8461538461538461, 'diversity': 0.75, 'order': 108}
Identificador => fvDhRGJ6XCHYvgtZOUIi
Data => {'diversity': 0.7, 'novelty': 0.6923076923076923, 'order': 181, 'message': 'you from me im going then right', 'id': 'fvDhRGJ6XCHYvgtZOUIi'}
Identificador => gGP31jhm200IvNcAGQoD
Data => {'rating_1': {'message_update': False, 'typeacuracy': 'Contains no persuasion', 'inteligility': 4, 'email': 'alajoa@unsa.edu.pe'}, 'message': 'you tell me do she kept trying to say where there pretty nothing because i dont care', 'id': 'gGP31jhm200IvNcAGQoD', 'diversity': 0.8, 'novelty': 0.72, 'group_code': 'Com001', 'order': 139, 'rating_2': {'typeacuracy': 'Commitment', 'message_update': False, 'email': 'abejar@unsa.edu.pe', 'inteligility': 4}}
Identificador => gJpqVesDCKJc33v3boZe
Data => {'diversity': 0.6666666666666667, 'message': 'wheres steve', 'id': 'gJpqVesDCKJc33v3boZe', 'novelty': 0.9333333333333333, 'order': 310}
Identificador => gK0h8QJVpobfWr87oBXE
Data => {'diversity': 0.25, 'order': 258, 'id': 'gK0h8QJVpobfWr87oBXE', 'novelty': 0.8, 'message': '<UNK> the baby'}
Identificador => gbrmOnwmBTkPnqrZR3QB
Data => {'diversity': 0.8, 'message': 'why do what kind of gun that you are <name> whats you dont have no proof <name>', 'order': 193, 'novelty': 0.75, 'id': 'gbrmOnwmBTkPnqrZR3QB'}
Identificador => ge3HmYpuIHVAnCmiceg6
Data => {'id': 'ge3HmYpuIHVAnCmiceg6', 'message': 'call me now what im going', 'order': 130, 'diversity': 0.7, 'novelty': 0.7142857142857143}
Identificador => h4uQeeMfV0ZWrjalnETV
Data => {'novelty': 0.8, 'id': 'h4uQeeMfV0ZWrjalnETV', 'order': 105, 'message': 'throw a stick out of trouble', 'diversity': 0.8571428571428572}
Identificador => hMhCJx44eVXAIexZX3IC
Data => {'id': 'hMhCJx44eVXAIexZX3IC', 'order': 254, 'message': 'all right', 'novelty': 0.5, 'diversity': 0.0}
Identificador => iGuFP5SYHZdDdoXv0maG
Data => {'rating_2': {'email': 'abejar@unsa.edu.pe', 'typeacuracy': 'Commitment', 'message_update': False, 'inteligility': 3}, 'message': 'is my rock and my salvation my its opened but lost is plenty', 'diversity': 0.8181818181818181, 'novelty': 0.8333333333333334, 'group_code': 'Com001', 'id': 'iGuFP5SYHZdDdoXv0maG', 'order': 239, 'rating_1': {'typeacuracy': 'Contains no persuasion', 'email': 'alajoa@unsa.edu.pe', 'message_update': False, 'inteligility': 2}}
Identificador => iWi0GnxTgKZbWYwd8gxJ
Data => {'id': 'iWi0GnxTgKZbWYwd8gxJ', 'message': 'im gonna definitely try he did he like it tells me to blow on me with her', 'order': 82, 'diversity': 0.7647058823529411, 'novelty': 0.7916666666666666}
Identificador => iWjHVxPHNJ2VHXtXNz7m
Data => {'novelty': 0.75, 'order': 19, 'diversity': 0.0, 'id': 'iWjHVxPHNJ2VHXtXNz7m', 'message': 'i know'}
Identificador => iqbmmDNsRK4fkXMlicRG
Data => {'novelty': 0.75, 'order': 15, 'message': 'i did', 'id': 'iqbmmDNsRK4fkXMlicRG', 'diversity': 0.0}
Identificador => isstltY9lISN4RXNwHdg
Data => {'message': 'know i know you really oughta let him smoke <name> did and he wouldnt wanna argue about', 'id': 'isstltY9lISN4RXNwHdg', 'novelty': 0.6666666666666667, 'order': 25, 'diversity': 0.7142857142857143}
Identificador => j6AE3cdeovpQVV4oCT2G
Data => {'message': 'all right i sure it [unidentified_voices_in_background_not_discernible] yeah', 'diversity': 0.7, 'novelty': 0.7777777777777778, 'order': 183, 'id': 'j6AE3cdeovpQVV4oCT2G'}
Identificador => j85lGR0RZB2xLt9otUCi
Data => {'order': 250, 'message': 'yea <ht01_first_name>', 'novelty': 0.8, 'diversity': 0.8, 'id': 'j85lGR0RZB2xLt9otUCi'}
Identificador => jCKiSzkOKfXpzIRPExVc
Data => {'order': 84, 'group_code': 'Com019', 'message': 'we have the money but this theres a newspaper reporter open fire', 'id': 'jCKiSzkOKfXpzIRPExVc', 'novelty': 0.8095238095238095, 'diversity': 0.85}
Identificador => jGWnmUaNolqOGTcCSh0m
Data => {'rating_2': {'message_update': False, 'typeacuracy': 'Consistency', 'email': 'lvillanuevag@unsa.edu.pe', 'inteligility': 2}, 'novelty': 0.8148148148148149, 'order': 100, 'group_code': 'Com011', 'rating_1': {'message_update': False, 'email': 'lsantet@unsa.edu.pe', 'inteligility': 4, 'typeacuracy': 'Commitment'}, 'id': 'jGWnmUaNolqOGTcCSh0m', 'message': 'what i dont worry about these other work soon still here wake everythings worried involved out everything', 'diversity': 0.8333333333333334}
Identificador => jmVgFePiKipYAhiN6FIB
Data => {'id': 'jmVgFePiKipYAhiN6FIB', 'novelty': 0.7894736842105263, 'group_code': 'Com001', 'message': '<name> shes was not gonna another car yet [unidentified_voice_in_background_not_discernible] wait a minute', 'order': 229, 'diversity': 0.75, 'rating_1': {'message_update': False, 'email': 'alajoa@unsa.edu.pe', 'inteligility': 1, 'typeacuracy': 'Contains no persuasion'}, 'rating_2': {'inteligility': 2, 'typeacuracy': "I'm not sure", 'email': 'abejar@unsa.edu.pe', 'message_update': False}}
Identificador => jqkRE5YgHn7FOFt6Pvfh
Data => {'order': 240, 'diversity': 0.8, 'novelty': 0.6923076923076923, 'rating_2': {'message_update': False, 'typeacuracy': 'Liking', 'inteligility': 2, 'email': 'ehuancap@unsa.edu.pe'}, 'rating_1': {'inteligility': 4, 'message_update': False, 'email': 'ehuayllasco@unsa.edu.pe', 'typeacuracy': 'Liking'}, 'id': 'jqkRE5YgHn7FOFt6Pvfh', 'message': 'thats ah and kimmie you are here trying to trick me about all im not a bad', 'group_code': 'Com003'}
Identificador => jsNvg0I0BiU9vRdLlLT7
Data => {'diversity': 0.8181818181818181, 'message': 'im out shooting for that long [pause]', 'novelty': 0.7894736842105263, 'order': 125, 'id': 'jsNvg0I0BiU9vRdLlLT7'}
Identificador => jz3riVpSmEQrClbRUDCs
Data => {'rating_2': {'typeacuracy': "I'm not sure", 'message_update': "they killing her name, she's fucking even if a man is going her chest", 'inteligility': 1, 'email': 'imoscosoa@unsa.edu.pe'}, 'novelty': 0.84, 'message': 'they killed her name her shes fucking even man im gonna your chest', 'diversity': 0.6923076923076923, 'id': 'jz3riVpSmEQrClbRUDCs', 'rating_1': {'typeacuracy': 'Commitment', 'email': 'jchavezgue@unsa.edu.pe', 'message_update': False, 'inteligility': 3}, 'order': 21, 'group_code': 'Com007'}
Identificador => jzjlCJ0GNTuHdjJaoL2b
Data => {'id': 'jzjlCJ0GNTuHdjJaoL2b', 'message': 'no my line', 'order': 95, 'diversity': 0.6666666666666667, 'novelty': 0.8461538461538461}
Identificador => k2IFtfLLs38yyJZu3s1g
Data => {'novelty': 0.9333333333333333, 'diversity': 0.8, 'order': 259, 'id': 'k2IFtfLLs38yyJZu3s1g', 'message': 'opened fire first <UNK>'}
Identificador => kDiqnKQ6akX8jZPR1jCR
Data => {'diversity': 0.6666666666666667, 'message': 'my <name>', 'order': 4, 'novelty': 0.7777777777777778, 'id': 'kDiqnKQ6akX8jZPR1jCR'}
Identificador => kHHb6gXuoaRcQQVdUisF
Data => {'order': 307, 'message': 'im not gonna coming', 'diversity': 0.5, 'novelty': 0.7857142857142857, 'id': 'kHHb6gXuoaRcQQVdUisF'}
Identificador => kMBIbtaLXSVEhnfsG4Q8
Data => {'message': '<name> dont let her go into', 'id': 'kMBIbtaLXSVEhnfsG4Q8', 'order': 65, 'diversity': 0.6666666666666667, 'novelty': 0.5555555555555556}
Identificador => kNHPjicUxmBFMOcScSS3
Data => {'novelty': 0.75, 'order': 237, 'id': 'kNHPjicUxmBFMOcScSS3', 'diversity': 0.6, 'message': 'i dont'}
Identificador => kS9U76I80hX3r1Kjdlxz
Data => {'novelty': 0.8181818181818181, 'order': 278, 'message': 'you an <name> needs yourself left yet', 'diversity': 0.8333333333333334, 'id': 'kS9U76I80hX3r1Kjdlxz'}
Identificador => kTvHCyPEYsSBTrZo4oFo
Data => {'novelty': 0.6666666666666667, 'order': 96, 'message': 'okay its <UNK>', 'diversity': 0.75, 'id': 'kTvHCyPEYsSBTrZo4oFo'}
Identificador => kmzkHsrjC5joMEJtTtW8
Data => {'rating_2': {'inteligility': 4, 'email': 'scutipaay@unsa.edu.pe', 'typeacuracy': 'Consistency', 'message_update': 'What you mean is, she goes for the money but tomorrow she will play better than nobody.'}, 'group_code': 'Com014', 'rating_1': {'inteligility': 5, 'typeacuracy': 'Commitment', 'message_update': False, 'email': 'sromeroc@unsa.edu.pe'}, 'diversity': 0.8148148148148149, 'novelty': 0.76, 'id': 'kmzkHsrjC5joMEJtTtW8', 'message': '<name> you mean it is she go by the money but she will play tomorrow that nobody', 'order': 135}
Identificador => kuqq24lSRiSxzH8PxUga
Data => {'novelty': 0.7, 'order': 53, 'diversity': 0.625, 'id': 'kuqq24lSRiSxzH8PxUga', 'message': 'daniel you know that the only thing'}
Identificador => kzJZgDmCOeDzJ5cgFZv0
Data => {'rating_2': {'inteligility': 4, 'message_update': False, 'email': 'lmurillo@unsa.edu.pe', 'typeacuracy': 'Commitment'}, 'diversity': 0.7692307692307692, 'group_code': 'Com005', 'id': 'kzJZgDmCOeDzJ5cgFZv0', 'rating_1': {'typeacuracy': 'Commitment', 'message_update': False, 'email': 'etorresq@unsa.edu.pe', 'inteligility': 5}, 'order': 271, 'message': 'no im not gonna try and its all tight okay now a question the deal had it', 'novelty': 0.6799999999999999}
Identificador => l5i6PcvRDVzEw8sqvDLB
Data => {'message': 'go ahead', 'order': 45, 'diversity': 0.6666666666666667, 'novelty': 0.33333333333333337, 'id': 'l5i6PcvRDVzEw8sqvDLB'}
Identificador => lj9y1ErsGseR5HCvFh4U
Data => {'group_code': 'Com020', 'novelty': 0.6363636363636364, 'diversity': 0.6666666666666667, 'id': 'lj9y1ErsGseR5HCvFh4U', 'order': 170, 'message': '<UNK> and are you gonna do that 10 4'}
Identificador => ljQKaNJOg2riGHhKsbeU
Data => {'message': 'um hum', 'novelty': 0.8666666666666667, 'diversity': 0.0, 'id': 'ljQKaNJOg2riGHhKsbeU', 'order': 0}
Identificador => ln2R3Pq8lofly5IpPaQZ
Data => {'id': 'ln2R3Pq8lofly5IpPaQZ', 'order': 93, 'message': 'thats what you wanna the car which <UNK> really about that stuff', 'diversity': 0.7777777777777778, 'novelty': 0.75}
Identificador => lxKJKcQUM0QRJnZ54ZkC
Data => {'novelty': 0.7692307692307692, 'message': 'to smoke about me <on1>', 'id': 'lxKJKcQUM0QRJnZ54ZkC', 'diversity': 0.6666666666666667, 'order': 91}
Identificador => m37RgpUyfctNWSzNUWOL
Data => {'id': 'm37RgpUyfctNWSzNUWOL', 'novelty': 0.5, 'message': 'okay well well', 'diversity': 0.33333333333333337, 'order': 72}
Identificador => mTxj2bW4UHAkCqHu7cSS
Data => {'rating_1': {'typeacuracy': 'Commitment', 'message_update': False, 'inteligility': 2, 'email': 'svilcalim@unsa.edu.pe'}, 'rating_2': {'typeacuracy': 'Commitment', 'message_update': False, 'inteligility': 3, 'email': 'elipau@unsa.edu.pe'}, 'order': 60, 'message': 'see that bank i okay hes asleep you know i was starting to wonder after all right', 'group_code': 'Com015', 'novelty': 0.6666666666666667, 'id': 'mTxj2bW4UHAkCqHu7cSS', 'diversity': 0.7142857142857143}
Identificador => mUMVgvwgGyJNP3GKydZa
Data => {'order': 292, 'id': 'mUMVgvwgGyJNP3GKydZa', 'novelty': 0.6956521739130435, 'diversity': 0.6956521739130435, 'message': 'for <name> my she said that she was getting here and i dont you know who was'}
Identificador => mfAvAYyJRt6sR6DHUBCD
Data => {'diversity': 0.6666666666666667, 'id': 'mfAvAYyJRt6sR6DHUBCD', 'novelty': 0.6666666666666667, 'order': 267, 'message': 'did you'}
Identificador => n7ktCqQX2xW7BCCnEotB
Data => {'id': 'n7ktCqQX2xW7BCCnEotB', 'order': 171, 'novelty': 0.6923076923076923, 'message': 'no they wont let her go', 'diversity': 0.6666666666666667}
Identificador => nGqGlIxdtYGvRGL1FR0F
Data => {'novelty': 0.8333333333333334, 'order': 114, 'id': 'nGqGlIxdtYGvRGL1FR0F', 'message': 'im telling him', 'diversity': 0.75}
Identificador => nMI8dr4HDLsm4O6xmakI
Data => {'diversity': 0.8461538461538461, 'message': 'i quit your telephone numbers <num>', 'order': 43, 'novelty': 0.8181818181818181, 'id': 'nMI8dr4HDLsm4O6xmakI'}
Identificador => nQnFkHGupWOvwqZst2li
Data => {'diversity': 0.8, 'order': 58, 'id': 'nQnFkHGupWOvwqZst2li', 'rating_2': {'inteligility': 1, 'message_update': False, 'email': 'ehuancap@unsa.edu.pe', 'typeacuracy': "I'm not sure"}, 'rating_1': {'typeacuracy': 'Commitment', 'inteligility': 4, 'email': 'ehuayllasco@unsa.edu.pe', 'message_update': False}, 'novelty': 0.7272727272727273, 'message': '<name> okay i see them to do anything <ht01_first_name> i was originally from the captain', 'group_code': 'Com003'}
Identificador => nWXOE4OfF6lfmows5tD3
Data => {'novelty': 0.8461538461538461, 'diversity': 0.8, 'message': 'what exit better is', 'id': 'nWXOE4OfF6lfmows5tD3', 'order': 142}
Identificador => nZXHg9l8KKbhVt1JLqLG
Data => {'id': 'nZXHg9l8KKbhVt1JLqLG', 'diversity': 0.0, 'order': 248, 'message': '<name> please please', 'novelty': 0.8333333333333334}
Identificador => nbRoL5SWVJ5KUD5oQknd
Data => {'diversity': 0.7142857142857143, 'id': 'nbRoL5SWVJ5KUD5oQknd', 'novelty': 0.7857142857142857, 'message': 'so you know who which never', 'order': 201}
Identificador => nsRwMSToNjzC037OjzIq
Data => {'message': 'okay and <name>', 'novelty': 0.6666666666666667, 'diversity': 0.33333333333333337, 'order': 161, 'id': 'nsRwMSToNjzC037OjzIq'}
Identificador => nvPcc8KhYLZ18lnr19s1
Data => {'order': 49, 'message': 'charge into position with able to talk to her', 'novelty': 0.7272727272727273, 'id': 'nvPcc8KhYLZ18lnr19s1', 'diversity': 0.75}
Identificador => nyecgMOPHhy8L0XwP9zg
Data => {'message': 'i still wish it was a military hospital hospital that', 'group_code': 'Com011', 'diversity': 0.8, 'id': 'nyecgMOPHhy8L0XwP9zg', 'order': 157, 'novelty': 0.8, 'rating_1': {'email': 'lsantet@unsa.edu.pe', 'inteligility': 4, 'typeacuracy': 'Commitment', 'message_update': False}, 'rating_2': {'inteligility': 3, 'message_update': 'Parece que esta incompleto el mensaje', 'typeacuracy': 'Contains no persuasion', 'email': 'lvillanuevag@unsa.edu.pe'}}
Identificador => oE7aB7T4AsjM4vCGxsRS
Data => {'message': 'have to give her on me', 'id': 'oE7aB7T4AsjM4vCGxsRS', 'order': 211, 'novelty': 0.6666666666666667, 'diversity': 0.7}
Identificador => oEUucITS9scNwwAOkkrI
Data => {'novelty': 0.8461538461538461, 'message': 'they killed <name>', 'diversity': 0.4, 'id': 'oEUucITS9scNwwAOkkrI', 'order': 179}
Identificador => oiY52bC6CZn0XqwCB8gw
Data => {'order': 28, 'id': 'oiY52bC6CZn0XqwCB8gw', 'novelty': 0.7777777777777778, 'message': 'no she do', 'diversity': 0.6666666666666667}
Identificador => owzUi6vwQEVcRlgNS8ft
Data => {'rating_1': {'typeacuracy': 'Commitment', 'message_update': False, 'email': 'fflorezag@unsa.edu.pe', 'inteligility': 5}, 'group_code': 'Com006', 'message': 'i will but i told them from either yet', 'rating_2': {'email': 'hyanquiv@unsa.edu.pe', 'inteligility': 4, 'typeacuracy': 'Contains no persuasion', 'message_update': False}, 'novelty': 0.6363636363636364, 'order': 167, 'id': 'owzUi6vwQEVcRlgNS8ft', 'diversity': 0.7777777777777778}
Identificador => pO1aKUzVPAur5IEILolZ
Data => {'novelty': 0.76, 'id': 'pO1aKUzVPAur5IEILolZ', 'diversity': 0.8571428571428572, 'order': 124, 'group_code': 'Com020', 'message': 'you better if im telling of new way theres her <hostage> here christ when you come out'}
Identificador => pQK5zvJnjjVOH6eCMaxS
Data => {'diversity': 0.8181818181818181, 'id': 'pQK5zvJnjjVOH6eCMaxS', 'novelty': 0.7333333333333334, 'group_code': 'Com008', 'rating_2': {'message_update': False, 'email': 'amendozavil@unsa.edu.pe', 'inteligility': 4, 'typeacuracy': "I'm not sure"}, 'order': 257, 'message': 'contact it your wife would try to teach and contact her though', 'rating_1': {'message_update': False, 'email': 'jhuaihuah@unsa.edu.pe', 'inteligility': 4, 'typeacuracy': 'Liking'}}
Identificador => pRJtZxgcltKjHHtE88db
Data => {'order': 138, 'diversity': 0.8181818181818181, 'id': 'pRJtZxgcltKjHHtE88db', 'novelty': 0.8, 'message': 'i could have two twenty idea cause'}
Identificador => paYQtSLUYqUwr9864vl7
Data => {'message': 'okay you want me with your chest why havent yea <name> a <place> over before last night', 'novelty': 0.76, 'diversity': 0.8518518518518519, 'rating_1': {'message_update': False, 'inteligility': 3, 'typeacuracy': 'Contains no persuasion', 'email': 'equinonez@unsa.edu.pe'}, 'order': 54, 'group_code': 'Com004', 'id': 'paYQtSLUYqUwr9864vl7', 'rating_2': {'typeacuracy': 'Liking', 'email': 'epalli@unsa.edu.pe', 'inteligility': 4, 'message_update': False}}
Identificador => q2kF83olxP9T99OhIhjd
Data => {'novelty': 0.8, 'diversity': 0.7777777777777778, 'message': 'okay that guy hes driving a <UNK> harley', 'id': 'q2kF83olxP9T99OhIhjd', 'order': 148}
Identificador => q5CqAgaV59rOtksI1yVX
Data => {'id': 'q5CqAgaV59rOtksI1yVX', 'novelty': 0.6666666666666667, 'diversity': 0.6, 'order': 73, 'message': 'you lied to me'}
Identificador => qGAnL2bCVIpvN8AQQpsJ
Data => {'rating_2': {'email': 'dpumaraime@unsa.edu.pe', 'message_update': False, 'inteligility': 1, 'typeacuracy': "I'm not sure"}, 'group_code': 'Com002', 'rating_1': {'typeacuracy': 'Liking', 'email': 'eespinozape@unsa.edu.pe', 'message_update': False, 'inteligility': 3}, 'message': 'she that you give me a fair answer me any', 'novelty': 0.7142857142857143, 'id': 'qGAnL2bCVIpvN8AQQpsJ', 'order': 212, 'diversity': 0.75}
Identificador => qRRxY5cz5A2zTbqnQWV9
Data => {'rating_1': {'inteligility': 3, 'email': 'fflorezag@unsa.edu.pe', 'message_update': False, 'typeacuracy': 'Liking'}, 'id': 'qRRxY5cz5A2zTbqnQWV9', 'message': 'thats all i mean would jake was worthy have whoever see 1 looks government by well be', 'order': 24, 'diversity': 0.8333333333333334, 'group_code': 'Com006', 'novelty': 0.8076923076923077, 'rating_2': {'email': 'hyanquiv@unsa.edu.pe', 'message_update': False, 'typeacuracy': "I'm not sure", 'inteligility': 1}}
Identificador => qwrZKlKmIiTAZ4FnZLvj
Data => {'order': 126, 'diversity': 0.7647058823529411, 'message': '<name> put <name> on me <name> and im not gonna do is it quiet out there okay', 'novelty': 0.6956521739130435, 'group_code': 'Com018', 'id': 'qwrZKlKmIiTAZ4FnZLvj'}
Identificador => r2vAlgfE6LjVklSSqP4b
Data => {'message': 'go i know', 'id': 'r2vAlgfE6LjVklSSqP4b', 'order': 202, 'novelty': 0.75, 'diversity': 0.33333333333333337}
Identificador => rJAn7VIGGRouxwA2eLPg
Data => {'diversity': 0.5, 'order': 284, 'id': 'rJAn7VIGGRouxwA2eLPg', 'message': 'uh i know that', 'novelty': 0.7333333333333334}
Identificador => rNrxmng8aqoh3PI7Kj7X
Data => {'group_code': 'Com010', 'rating_2': {'email': 'jvaldiviame@unsa.edu.pe', 'message_update': False, 'inteligility': 2, 'typeacuracy': 'Commitment'}, 'diversity': 0.7894736842105263, 'novelty': 0.6956521739130435, 'id': 'rNrxmng8aqoh3PI7Kj7X', 'order': 133, 'rating_1': {'inteligility': 1, 'typeacuracy': 'Contains no persuasion', 'message_update': False, 'email': 'lmoroco@unsa.edu.pe'}, 'message': 'i dont know no i dont blame it down the road thats ill do the phone and'}
Identificador => rd71Q8PYWUTUXAtz4sAY
Data => {'novelty': 0.5714285714285714, 'message': '<name> im gonna do that will', 'order': 219, 'diversity': 0.75, 'id': 'rd71Q8PYWUTUXAtz4sAY'}
Identificador => rdlhw5Pkv0KZVZMhyHte
Data => {'diversity': 0.8, 'id': 'rdlhw5Pkv0KZVZMhyHte', 'order': 268, 'novelty': 0.7692307692307692, 'message': 'its in the one'}
Identificador => ro6y5mYY5CAxyUEvbBFy
Data => {'message': 'they dont talk around him from i wanna [inaudible]', 'novelty': 0.7619047619047619, 'diversity': 0.6153846153846154, 'id': 'ro6y5mYY5CAxyUEvbBFy', 'order': 207}
Identificador => sArDNxO5WT3AVMb2xQD6
Data => {'message': 'i know but thats all our concern', 'order': 132, 'novelty': 0.7333333333333334, 'id': 'sArDNxO5WT3AVMb2xQD6', 'diversity': 0.6}
Identificador => sFVHIiEwXZTRjrohqB4M
Data => {'rating_1': {'typeacuracy': 'Commitment', 'email': 'jhuaihuah@unsa.edu.pe', 'inteligility': 5, 'message_update': False}, 'group_code': 'Com008', 'message': 'i didnt talk to her back so he was dead i', 'id': 'sFVHIiEwXZTRjrohqB4M', 'rating_2': {'message_update': False, 'typeacuracy': 'Consistency', 'inteligility': 4, 'email': 'amendozavil@unsa.edu.pe'}, 'novelty': 0.75, 'order': 98, 'diversity': 0.7333333333333334}
Identificador => sSviv03ISNJDlc4Guokr
Data => {'order': 214, 'id': 'sSviv03ISNJDlc4Guokr', 'diversity': 0.4, 'message': 'i didnt know you name', 'novelty': 0.75}
Identificador => sd0Yv8HiPyomVbYXhHQf
Data => {'order': 290, 'diversity': 0.5555555555555556, 'id': 'sd0Yv8HiPyomVbYXhHQf', 'novelty': 0.7, 'message': 'but i know <name> its all right'}
Identificador => srU1c6XqhBhvzFejj4Vn
Data => {'order': 279, 'id': 'srU1c6XqhBhvzFejj4Vn', 'group_code': 'Com002', 'novelty': 0.6842105263157895, 'rating_1': {'message_update': False, 'email': 'eespinozape@unsa.edu.pe', 'typeacuracy': "I'm not sure", 'inteligility': 2}, 'diversity': 0.7058823529411764, 'rating_2': {'email': 'dpumaraime@unsa.edu.pe', 'message_update': False, 'inteligility': 1, 'typeacuracy': "I'm not sure"}, 'message': 'you got in touch with i never you know to talk with him all that'}
Identificador => uNmwYLNPDAM6e2xEZ3Se
Data => {'diversity': 0.7647058823529411, 'rating_2': {'typeacuracy': 'Liking', 'email': 'lvillanuevag@unsa.edu.pe', 'inteligility': 3, 'message_update': False}, 'id': 'uNmwYLNPDAM6e2xEZ3Se', 'rating_1': {'email': 'lsantet@unsa.edu.pe', 'inteligility': 4, 'typeacuracy': 'Liking', 'message_update': False}, 'novelty': 0.6666666666666667, 'order': 223, 'group_code': 'Com011', 'message': 'the problem is i just talking to her while you talked but i expect you are you'}
Identificador => v86AL4Iw3jtI3jfzZ4So
Data => {'diversity': 0.7272727272727273, 'message': 'well <UNK> me let me ask them about her', 'order': 143, 'id': 'v86AL4Iw3jtI3jfzZ4So', 'novelty': 0.7272727272727273}
Identificador => v8XcFADbKL7pUYjdsqSy
Data => {'message': 'no i didnt get eighteen percent of this all im her hands were ten other too got', 'group_code': 'Com019', 'id': 'v8XcFADbKL7pUYjdsqSy', 'order': 261, 'novelty': 0.7692307692307692, 'diversity': 0.8333333333333334}
Identificador => vRLCsrQkakPnTsOvaytk
Data => {'group_code': 'Com011', 'id': 'vRLCsrQkakPnTsOvaytk', 'rating_2': {'email': 'lvillanuevag@unsa.edu.pe', 'typeacuracy': "I'm not sure", 'inteligility': 3, 'message_update': False}, 'novelty': 0.7692307692307692, 'diversity': 0.8076923076923077, 'rating_1': {'email': 'lsantet@unsa.edu.pe', 'inteligility': 2, 'message_update': False, 'typeacuracy': "I'm not sure"}, 'message': 'the same fashion and these years on for that situation when she was runnin room as doing', 'order': 92}
Identificador => vUEjcvWO3Lnm7TglzmUz
Data => {'message': 'youre i know', 'diversity': 0.33333333333333337, 'order': 23, 'id': 'vUEjcvWO3Lnm7TglzmUz', 'novelty': 0.75}
Identificador => vkzzQrZcVZsjQsZzACZo
Data => {'novelty': 0.875, 'order': 101, 'id': 'vkzzQrZcVZsjQsZzACZo', 'diversity': 0.75, 'message': 'who was her'}
Identificador => vyQiyn7iUxuS3pInpo7L
Data => {'diversity': 0.4, 'order': 199, 'novelty': 0.8, 'message': 'yes im listening i go', 'id': 'vyQiyn7iUxuS3pInpo7L'}
Identificador => vyakKniK7jTgfQh7ayAr
Data => {'message': '<name> i heard i sold the property <UNK> <name> is going through the same as me know', 'diversity': 0.782608695652174, 'group_code': 'Com020', 'novelty': 0.7894736842105263, 'id': 'vyakKniK7jTgfQh7ayAr', 'order': 286}
Identificador => wTnyWpDdqnudyLZvHtff
Data => {'message': 'to do better situation', 'order': 299, 'id': 'wTnyWpDdqnudyLZvHtff', 'novelty': 0.7142857142857143, 'diversity': 0.75}
Identificador => wV4TtYp5p1qNCi8Vu223
Data => {'id': 'wV4TtYp5p1qNCi8Vu223', 'novelty': 0.8125, 'diversity': 0.8571428571428572, 'order': 107, 'message': 'what are a fool stuff together'}
Identificador => wWtU30ghqV5Qk0CnRRia
Data => {'message': 'i lost this', 'diversity': 0.75, 'novelty': 0.75, 'order': 44, 'id': 'wWtU30ghqV5Qk0CnRRia'}
Identificador => wfBgzviV5DaHjmhcgSuZ
Data => {'rating_2': {'inteligility': 1, 'message_update': False, 'typeacuracy': 'Contains no persuasion', 'email': 'hyanquiv@unsa.edu.pe'}, 'rating_1': {'typeacuracy': "I'm not sure", 'message_update': False, 'inteligility': 3, 'email': 'fflorezag@unsa.edu.pe'}, 'order': 238, 'novelty': 0.7272727272727273, 'id': 'wfBgzviV5DaHjmhcgSuZ', 'group_code': 'Com006', 'diversity': 0.8076923076923077, 'message': 'uh uh you might runnin room sir on do uh communications with me with all these years'}
Identificador => xG0Gkmi6S0teYTKtsU0a
Data => {'diversity': 0.5714285714285714, 'message': 'how many rounds again', 'id': 'xG0Gkmi6S0teYTKtsU0a', 'order': 17, 'novelty': 0.8333333333333334}
Identificador => xJY3Bd5pReYpTOrLTXWe
Data => {'diversity': 0.6153846153846154, 'message': 'i got a <UNK> they dont wanna stay around', 'order': 64, 'group_code': 'Com007', 'id': 'xJY3Bd5pReYpTOrLTXWe', 'rating_2': {'message_update': False, 'email': 'imoscosoa@unsa.edu.pe', 'inteligility': 5, 'typeacuracy': 'Contains no persuasion'}, 'rating_1': {'inteligility': 3, 'typeacuracy': 'Commitment', 'message_update': False, 'email': 'jchavezgue@unsa.edu.pe'}, 'novelty': 0.7222222222222222}
Identificador => xVupVqQAoiLnKoUwUS3e
Data => {'diversity': 0.6875, 'id': 'xVupVqQAoiLnKoUwUS3e', 'novelty': 0.6428571428571428, 'order': 196, 'message': '<name> that talk to him on her <name>'}
Identificador => xqBth3Pa1UCh8rSVopSH
Data => {'order': 210, 'message': 'didnt get and think you think that are', 'id': 'xqBth3Pa1UCh8rSVopSH', 'diversity': 0.6666666666666667, 'novelty': 0.6666666666666667}
Identificador => xz2fyigqqpo9kAVHKE5M
Data => {'order': 206, 'message': 'you know that going in', 'novelty': 0.6923076923076923, 'diversity': 0.6666666666666667, 'id': 'xz2fyigqqpo9kAVHKE5M'}
Identificador => ydVKmY7zkShnbx36wzuE
Data => {'message': 'is she still breathing for me to do it', 'id': 'ydVKmY7zkShnbx36wzuE', 'novelty': 0.6, 'order': 115, 'diversity': 0.8}
Identificador => yk14eWEvz4o9C3eYtYX0
Data => {'novelty': 0.8, 'diversity': 0.8666666666666667, 'message': 'better aint security cant work this this with <name> <pn1> s friend i could i hey youre', 'id': 'yk14eWEvz4o9C3eYtYX0', 'order': 295}
Identificador => yq0Q3Cs1yJDcG4uGGsFK
Data => {'novelty': 0.7857142857142857, 'id': 'yq0Q3Cs1yJDcG4uGGsFK', 'order': 249, 'diversity': 0.75, 'message': 'you made any less a vehicle'}
Identificador => yt4ngk3V1NyS14cIOqf8
Data => {'id': 'yt4ngk3V1NyS14cIOqf8', 'order': 208, 'diversity': 0.7727272727272727, 'group_code': 'Com018', 'message': 'all right put down here or and how would <UNK> i worked out and out', 'novelty': 0.7142857142857143}
Identificador => yx9QkUCH9Slq87WcerLs
Data => {'rating_2': {'typeacuracy': 'Liking', 'email': 'amendozavil@unsa.edu.pe', 'message_update': False, 'inteligility': 3}, 'message': 'she does that help and told me and get us up here okay all are met', 'rating_1': {'inteligility': 2, 'email': 'jhuaihuah@unsa.edu.pe', 'message_update': False, 'typeacuracy': "I'm not sure"}, 'group_code': 'Com008', 'novelty': 0.7391304347826086, 'order': 216, 'diversity': 0.7777777777777778, 'id': 'yx9QkUCH9Slq87WcerLs'}
Identificador => z8qkpCTEeP2ERTPcEKWI
Data => {'message': 'the problem and', 'novelty': 0.7857142857142857, 'diversity': 0.6, 'order': 195, 'id': 'z8qkpCTEeP2ERTPcEKWI'}
Identificador => zC36RuPFAjVC42YjfALK
Data => {'message': 'i dont want you to keep <name>', 'id': 'zC36RuPFAjVC42YjfALK', 'diversity': 0.6, 'order': 228, 'novelty': 0.5714285714285714}
Identificador => zMRLj48u9V4h0v63hH5B
Data => {'id': 'zMRLj48u9V4h0v63hH5B', 'novelty': 0.7, 'rating_2': {'email': 'lvillanuevag@unsa.edu.pe', 'typeacuracy': 'Contains no persuasion', 'message_update': False, 'inteligility': 3}, 'message': 'a couple of them all came down to <UNK> <name>', 'order': 121, 'rating_1': {'typeacuracy': 'Liking', 'email': 'lsantet@unsa.edu.pe', 'inteligility': 5, 'message_update': False}, 'group_code': 'Com011', 'diversity': 0.7692307692307692}
Identificador => zYLdkx467peePiEyEQDM
Data => {'group_code': 'Com016', 'order': 316, 'id': 'zYLdkx467peePiEyEQDM', 'message': 'those hes also got all in a military mr woman or', 'novelty': 0.8181818181818181, 'diversity': 0.8333333333333334}
Identificador => ziaFe3DpeFhYL8AgOtM3
Data => {'order': 112, 'novelty': 0.8235294117647058, 'diversity': 0.8888888888888888, 'message': 'id rather think about tah new way', 'id': 'ziaFe3DpeFhYL8AgOtM3'}
Identificador => zuCl9HwXUv75nMK4pWoZ
Data => {'diversity': 0.6666666666666667, 'novelty': 0.7857142857142857, 'message': 'my house and so forth', 'id': 'zuCl9HwXUv75nMK4pWoZ', 'order': 185}
